<?xml version="1.0" encoding="utf-8"?>
<!-- Generator: Adobe Illustrator 21.0.0, SVG Export Plug-In . SVG Version: 6.00 Build 0)  -->
<svg version="1.1" id="Capa_1" xmlns="http://www.w3.org/2000/svg" xmlns:xlink="http://www.w3.org/1999/xlink" x="0px" y="0px"
	 viewBox="0 0 512 512" style="enable-background:new 0 0 512 512;" xml:space="preserve">
<style type="text/css">
	.st0{fill:#279599;}
	.st1{fill:#939598;}
</style>
<g>
	<g>
		<g>
			<path class="st0" d="M380.1,132H112.9c-15.7,0-28.6,12.9-28.6,28.6v19.1c0,68.1,37.6,129.9,98.1,161.2c4.7,2.4,10.5,0.6,12.9-4.1
				c2.4-4.7,0.6-10.5-4.1-12.9c-54.1-28-87.8-83.3-87.8-144.2v-19.1c0-5.3,4.3-9.6,9.6-9.6h267.2c5.3,0,9.6,4.3,9.6,9.6v19.1
				c0,60.9-33.6,116.2-87.8,144.2c-4.7,2.4-6.5,8.2-4.1,12.9c1.7,3.3,5,5.2,8.5,5.2c1.5,0,3-0.4,4.4-1.1
				c60.6-31.3,98.1-93,98.1-161.1v-19.1C408.7,144.8,395.8,132,380.1,132z"/>
		</g>
	</g>
	<g>
		<g>
			<path class="st0" d="M465.2,328.7c-1.5-3.6-4.9-5.9-8.9-5.9H36.6c-3.8,0-7.3,2.3-8.9,5.9c-1.5,3.6-0.6,7.7,2.1,10.4l21.4,21.4
				C63.9,373.1,80.6,380,98.4,380h296.1c17.8,0,34.6-7,47.2-19.6l21.4-21.4C465.9,336.3,466.7,332.2,465.2,328.7z M428.2,346.9
				c-9,9-21,14-33.7,14H98.4c-12.7,0-24.7-4.9-33.7-14l-5.1-5.1h373.8L428.2,346.9z"/>
		</g>
	</g>
	<g>
		<g>
			<path class="st0" d="M466.6,177c-25.7-16.5-66.7,1.4-71.4,3.5c-4.8,2.2-6.9,7.9-4.7,12.6s7.8,6.9,12.6,4.7
				c9.2-4.2,38.7-14,53.1-4.8c6.5,4.2,9.7,12.3,9.7,24.7c0,38.2-77,61.3-106.8,67l-6.8,1.3c-5.2,1-8.5,6-7.5,11.2
				c0.9,4.6,4.9,7.7,9.4,7.7c0.6,0,1.3-0.1,1.9-0.2l6.7-1.3c5-1,122.3-24,122.3-85.7C485,198.6,478.8,184.9,466.6,177z"/>
		</g>
	</g>
</g>
</svg>
