<?xml version="1.0" standalone="no"?>
<!DOCTYPE svg PUBLIC "-//W3C//DTD SVG 20010904//EN"
 "http://www.w3.org/TR/2001/REC-SVG-20010904/DTD/svg10.dtd">
<svg version="1.0" xmlns="http://www.w3.org/2000/svg"
fill='#1a767f'
 width="800.000000pt" height="250.000000pt" viewBox="0 0 800.000000 250.000000"
 preserveAspectRatio="xMidYMid meet">

<g transform="translate(0.000000,250.000000) scale(0.100000,-0.100000)"
fill='#1a767f' stroke="none">
<path d="M1817 1833 c-34 -33 -58 -33 2178 -33 2178 0 2185 0 2185 20 0 20 -7
20 -2178 20 -1198 0 -2182 -3 -2185 -7z"/>
<path d="M1393 1651 c-109 -28 -212 -115 -261 -219 -25 -52 -27 -68 -27 -177
0 -113 2 -124 31 -185 38 -79 98 -141 179 -183 57 -31 65 -32 175 -32 108 0
119 2 175 30 l60 30 3 88 c1 48 1 87 -2 87 -3 0 -27 -14 -53 -30 -84 -52 -199
-58 -283 -15 -40 21 -87 79 -99 122 -17 59 -13 153 8 198 28 61 89 111 155
126 49 11 65 10 119 -5 34 -9 79 -28 99 -42 21 -13 42 -24 48 -24 6 0 10 34
10 86 l0 85 -67 32 c-57 26 -81 31 -153 34 -47 1 -99 -2 -117 -6z"/>
<path d="M4717 1650 c-62 -16 -131 -56 -179 -104 -193 -197 -138 -541 107
-662 55 -26 69 -29 165 -29 99 0 109 2 172 33 149 73 228 221 215 404 -14 203
-169 357 -366 364 -42 2 -93 -1 -114 -6z m166 -173 c18 -8 48 -32 68 -54 133
-147 44 -403 -138 -403 -62 0 -95 15 -140 62 -43 45 -63 96 -63 164 0 74 16
124 52 169 57 68 146 93 221 62z"/>
<path d="M1812 1253 l3 -378 85 0 85 0 3 158 3 157 149 0 150 0 0 -160 0 -160
85 0 85 0 0 380 0 380 -85 0 -84 0 -3 -137 -3 -138 -145 0 -145 0 -3 138 -3
137 -89 0 -90 0 2 -377z"/>
<path d="M2680 1263 c-80 -201 -146 -372 -148 -380 -3 -11 14 -13 88 -11 l92
3 17 45 17 45 165 3 166 2 21 -50 21 -50 91 0 c72 0 91 3 88 13 -2 8 -68 179
-148 380 l-145 367 -90 0 -90 0 -145 -367z m293 -4 l54 -144 -110 -3 c-60 -1
-111 -1 -113 1 -2 2 19 64 46 138 28 74 53 140 55 148 3 8 8 12 10 9 3 -2 29
-69 58 -149z"/>
<path d="M3372 1253 l3 -378 85 0 85 0 3 378 2 377 -90 0 -90 0 2 -377z"/>
<path d="M3852 1253 l3 -378 85 0 85 0 3 136 3 136 73 6 c168 12 265 100 266
240 0 96 -41 165 -125 210 -36 20 -59 22 -218 25 l-177 4 2 -379z m317 219
c35 -25 48 -79 30 -118 -18 -37 -71 -64 -126 -64 l-43 0 0 106 0 107 57 -6
c32 -3 68 -14 82 -25z"/>
<path d="M5272 1253 l3 -378 85 0 85 0 3 378 2 377 -90 0 -90 0 2 -377z"/>
<path d="M5522 1253 l3 -378 80 0 80 0 5 240 5 240 164 -242 165 -243 78 0 78
0 0 380 0 380 -80 0 -80 0 -2 -232 -3 -233 -164 233 -163 232 -84 0 -84 0 2
-377z"/>
<path d="M6260 1555 l0 -75 120 0 120 0 0 -305 0 -306 88 3 87 3 3 303 2 302
120 0 120 0 0 75 0 75 -330 0 -330 0 0 -75z"/>
<path d="M1810 685 c0 -13 249 -15 2185 -15 1936 0 2185 2 2185 15 0 13 -249
15 -2185 15 -1936 0 -2185 -2 -2185 -15z"/>
</g>
</svg>
