<?xml version="1.0" encoding="utf-8"?>
<!-- Generator: Adobe Illustrator 21.0.0, SVG Export Plug-In . SVG Version: 6.00 Build 0)  -->
<svg version="1.1" id="Layer_1" xmlns="http://www.w3.org/2000/svg" xmlns:xlink="http://www.w3.org/1999/xlink" x="0px" y="0px"
	 viewBox="0 0 1080 1080" style="enable-background:new 0 0 1080 1080;" xml:space="preserve">
<style type="text/css">
	.st0{fill:#279599;}
</style>
<g>
	<path class="st0" d="M900,683.8c11.8-0.6,21.2-10.4,21.2-22.4c0-64.5-51.8-115.1-117.9-115.1h-21.9l-26.7-126.8
		c25.8-11.2,43.9-36.9,43.9-66.8c0-40.1-32.6-72.8-72.7-72.8H622.5c-12.4,0-22.4,10-22.4,22.4v27.9H545c-12.4,0-22.4,10-22.4,22.4
		s10,22.4,22.4,22.4h55.1v27.9c0,12.4,10,22.4,22.4,22.4h9.9c-18.5,21.9-29.8,50.3-29.8,81.2v127.6c0,0.7-0.5,1.2-1.2,1.2H511
		c-0.5,0-1-0.3-1.1-0.8l-24.4-82.5c19.7-5.3,34.2-23.2,34.2-44.6c0-50.6-41.1-91.8-91.7-91.8H226.1c-38,0-68.9,30.9-68.9,69
		c0,34.8,25.8,63.6,59.3,68.3c-35.5,31.8-57.9,77.9-57.9,129.3v69.8c0,12.4,10,22.4,22.4,22.4h19.4c10.4,52.1,56.5,91.5,111.5,91.5
		s101.1-39.4,111.5-91.5h274C707.9,826.6,754,866,809,866c62.7,0,113.8-51.1,113.8-113.9C922.8,726.5,914.3,702.8,900,683.8
		L900,683.8z M872.7,639h-50.4c-4.3-0.5-8.8-0.8-13.2-0.8c-8,0-15.9,0.8-23.4,2.4v-49.5h17.6C836,591.2,863.2,610.9,872.7,639
		L872.7,639z M644.9,324.8h80.9c15.4,0,27.9,12.5,27.9,27.9c0,15.4-12.5,27.9-27.9,27.9h-80.9V324.8z M511,680.4h90.5
		c25.4,0,46-20.7,46-46V506.7c0-38.5,27-70.9,63.1-79l30.2,143.4V661c-21.9,16.5-37.7,40.7-43.3,68.6H474.8
		C464.3,649.2,397.9,589,314.9,589c-37,0-70.2,12.1-96.4,32.8c21.6-40.5,64.3-68.1,113.3-68.1h107.3l27.7,93.7
		C472.6,666.8,490.8,680.4,511,680.4L511,680.4z M205.3,729.7c3.9-23.9,14.1-45.4,29.7-62.1c20.3-21.8,48.7-33.8,80-33.8
		c57.8,0,104.5,40.6,114.5,95.8L205.3,729.7L205.3,729.7z M226.1,508.9c-13.3,0-24.1-10.8-24.1-24.1c0-13.3,10.8-24.1,24.1-24.1
		h201.8c25.9,0,46.9,21.1,46.9,47c-0.2,0.9-1.7,1.5-4.4,1.3c-18.6,0-13.3,0-17.2,0C426.5,508.9,226.2,508.9,226.1,508.9L226.1,508.9
		z M311.9,821.1c-30.2,0-55.9-19.5-65.2-46.6h130.4C367.8,801.6,342.1,821.1,311.9,821.1z M809,821.1c-38,0-68.9-31-68.9-69
		s30.9-69,68.9-69c38,0,68.9,31,68.9,69S847,821.1,809,821.1z"/>
	<ellipse class="st0" cx="809" cy="752.1" rx="22.5" ry="22.6"/>
	<path class="st0" d="M180.6,350.8h200.9c12.4,0,22.4-10,22.4-22.4c0-12.4-10-22.4-22.4-22.4H180.6c-12.4,0-22.4,10-22.4,22.4
		C158.2,340.7,168.2,350.8,180.6,350.8z"/>
	<path class="st0" d="M255,258.9h202.6c12.4,0,22.4-10,22.4-22.4c0-12.4-10-22.4-22.4-22.4H255c-12.4,0-22.4,10-22.4,22.4
		C232.6,248.8,242.6,258.9,255,258.9z"/>
</g>
</svg>
