<?xml version="1.0" encoding="utf-8"?>
<!-- Generator: Adobe Illustrator 21.0.0, SVG Export Plug-In . SVG Version: 6.00 Build 0)  -->
<svg version="1.1" id="Layer_1" xmlns="http://www.w3.org/2000/svg" xmlns:xlink="http://www.w3.org/1999/xlink" x="0px" y="0px"
	 viewBox="0 0 512 512" style="enable-background:new 0 0 512 512;" xml:space="preserve">
<style type="text/css">
	.st0{fill:#279599;}
</style>
<g>
	<g>
		<path class="st0" d="M255.4,345.3c5.6,0,11.2-2.1,15.4-6.4L405,204.8c8.5-8.5,8.5-22.4,0-30.9s-22.4-8.5-30.9,0L255.4,292.6
			L136.8,174c-8.5-8.5-22.4-8.5-30.9,0s-8.5,22.4,0,30.9L240,339C244.2,343.2,249.8,345.3,255.4,345.3z"/>
	</g>
</g>
</svg>
