<?xml version="1.0" encoding="utf-8"?>
<!-- Generator: Adobe Illustrator 21.0.0, SVG Export Plug-In . SVG Version: 6.00 Build 0)  -->
<svg version="1.1" id="Layer_1" xmlns="http://www.w3.org/2000/svg" xmlns:xlink="http://www.w3.org/1999/xlink" x="0px" y="0px"
	 viewBox="0 0 512 512" style="enable-background:new 0 0 512 512;" xml:space="preserve">
<style type="text/css">
	.st0{fill:#279296;}
	.st1{opacity:0.3;clip-path:url(#SVGID_2_);}
	.st2{opacity:0.33;clip-path:url(#SVGID_4_);}
</style>
<g>
	<defs>
		<rect id="SVGID_3_" x="274.2" y="5.4" width="237.8" height="480.6"/>
	</defs>
	<clipPath id="SVGID_2_">
		<use xlink:href="#SVGID_3_"  style="overflow:visible;"/>
	</clipPath>
	<g style="opacity:0.33;clip-path:url(#SVGID_2_);">
		<path class="st0" d="M347.8,45.7c-0.1,0.6,0.5,2.9,1.3,5c0.8,2.2,1.9,15.7,2.6,32.3c1.1,27.4,1.1,28.5-1.1,28.4
			c-3.3-0.2-3.6,2-2,15.7c1.2,10.3,6.7,44.7,8.6,53.6c0.5,2.3,0.3,3-0.5,2.3c-0.6-0.5-2.1-0.9-3.2-0.9c-2.9,0.2-2.8,1.5,1.7,18.6
			c4.3,16.1,10.1,32.2,15.6,43.4c3.4,6.9,3.4,7.1,1.3,7.3c-1.7,0.2-2.3,0.7-2.6,2c-0.7,3.7,10.6,24.9,22.3,42.1
			c6.2,9.1,6.6,9.8,4.5,9.6c-3.4-0.5-4.7,1.7-2.9,4.7c3,5,15.4,21.1,21.8,28c12.4,13.6,11.9,12.9,9.4,13.1c-2.8,0.3-4.2,2-3.1,3.8
			c2,3.4,10.3,12.2,17.8,19c6.9,6.2,17.9,14.3,27.9,20.6l2.7,1.7l-5.4-0.7c-7.5-0.9-10.6-0.5-10.5,1.5c0.2,2.9,26.2,19.7,43.3,27.9
			c18,8.7,41.8,16.3,59.5,18.9l9.9,1.5l8,9.6c9.8,11.8,27.6,28.4,32.5,30.4c1.8,0.7,5,1,7.1,0.6l3.8-0.7l-0.2-4.1l-0.2-4.1
			l-16.9-20.1c-16.3-19.3-17-20.3-18.5-25.6c-3.4-11.7-4.3-24.7-3.2-45c1.3-24,0.1-49.9-2.6-56.5c-1-2.6-2.3-8.1-2.7-12.5
			c-1.1-9.9-4-24.7-5.6-28.1c-0.7-1.5-1.9-2.8-2.7-3c-0.9-0.2-1.6-1.3-1.9-3c-0.2-1.5-0.8-3-1.3-3.5c-0.5-0.4-2-5-3.4-10.2
			c-2.3-8.5-6.2-17.7-8.3-19.6c-0.5-0.4-1.5-0.7-2.3-0.7c-1,0-2.3-1.9-4.9-7.5c-3.8-8.1-6.1-10.8-8.6-10c-1.5,0.5-2.1-0.4-6.3-8.6
			c-5.9-11.8-12.4-23.2-13.9-24.6c-1.4-1.2-2.5-0.3-3.8,3.1c-0.5,1.3-1.1,2.1-1.4,1.9c-0.3-0.2-3.5-5.8-7.3-12.4
			c-9.1-16.1-14.4-23.6-16.7-23.7c-0.9,0-2,0.6-2.3,1.3c-0.9,2.3-4.2-3.5-5.7-9.7c-0.3-1.4-0.8-1.8-1.6-1.6
			c-0.8,0.2-3.8-3.2-10-11.5c-19.5-26.1-25.8-33.6-28.3-34.4c-2.1-0.7-2.7-0.4-3.9,1.6c-1.2,2.1-1.5,2.2-2.2,0.9
			c-1.3-2.6-13.9-21.3-18.1-27.1c-3.3-4.4-4.2-6.5-4.7-10.9c-0.3-3-1-5.6-1.5-5.8c-2-0.9-2.7,0.8-1.9,5.1c0.5,2.6,0.4,5.1-0.1,5.7
			c-0.5,0.6-1,3.4-1.1,6.3l-0.2,5.2l-3.9-4.3c-2.2-2.4-7.7-8.5-12.4-13.7c-4.7-5.2-13.9-14.6-20.5-20.9
			c-10.9-10.4-12.3-11.5-14.2-11.4C349.9,42.3,348.1,43.8,347.8,45.7L347.8,45.7z M360.9,77.7c4.3,11.4,21.3,50.2,31.9,72.9
			c1.7,3.5,2.8,6.4,2.5,6.4c-0.6,0-3.5-3.4-23.7-27.5l-13.9-16.6l-1-11.8c-0.8-10.1-1.7-36.2-1.2-36.7
			C355.7,64.2,358.1,70.2,360.9,77.7L360.9,77.7z M368.8,60.7c2.8,3,11.7,12.6,19.7,21.5l14.5,16.1l1.2,10.6
			c0.7,5.9,1.2,14.4,1.2,19.1c0,8.5,0.3,10,1.9,9.1c1.3-0.7,1-19.7-0.5-30.6c-0.8-5.5-1-10.7-0.5-11.7c0.8-1.6,1-1.3,1.3,2.2
			c0.3,3,7.3,59.6,7.8,62.3c0.1,0.5-5.5-10.7-13.6-27.2c-3.5-7.2-11.7-23.5-18.3-36.3c-15.6-30.6-20.4-40-20.1-40.3
			C363.6,55.4,366,57.7,368.8,60.7L368.8,60.7z M357.9,118.5c0.8,1,5,6,9.3,11.2c4.3,5.1,11.3,13.5,15.5,18.6
			c4.2,5.1,10.4,12.1,13.8,15.6c5.4,5.5,7.6,8.7,15.6,22.6c5.2,8.9,9.1,16.2,8.8,16.3c-0.3,0-9.1-8.2-19.6-18.2
			c-24.6-23.5-24-23-24.9-21.9c-0.7,0.8,1.9,3.5,14.7,15.3c12.1,11.1,15.5,14.7,15.3,15.7c-0.2,1.1,1.7,3,9.5,9.2
			c8,6.4,10,8.4,10.8,10.6l1,2.7l-3-1.9c-1.6-1.1-5.2-3.5-7.9-5.5c-2.7-1.9-5.2-3.3-5.5-3c-0.7,0.8,2.6,3.5,11.3,9.4l7.3,5l5.8,10.8
			c3.2,5.9,8.9,16.2,12.6,22.7l6.7,11.9l-4.1-2.9c-2.2-1.6-8.4-6.3-13.7-10.6c-9.9-7.9-14.2-9.7-6.4-2.7
			c6.9,6.2,22.7,17.7,23.8,17.4c0.7-0.2,2,1.3,3.6,4.1l2.5,4.4l-5.3-2.6c-9.1-4.4-18.6-11.6-31.9-24c-6.9-6.5-12.7-11.5-12.9-11.2
			c-0.9,1,6.7,8.6,20,19.8c14,11.8,21.5,16.8,28.2,18.8c3,0.9,3.4,1.3,7.9,9.3c4.5,7.8,4.6,8.2,2.1,6.8
			c-7.3-4.3-22.2-15.2-36.3-26.6c-17.1-13.9-25.7-22.4-41.6-40.6c-8.6-9.9-30.5-34.5-31.7-35.6c-0.3-0.2,0.2-1.1,0.9-2
			c1.1-1.2,0.9-4.4-0.8-13.6c-2.7-14.9-6.1-37-7.4-48.6l-1-8.7l2.6,0.2C355.3,116.6,357.1,117.5,357.9,118.5L357.9,118.5z
			 M383.1,116.7c4.5,9,12.4,25,17.6,35.5c5.2,10.5,12.5,24.8,16.3,31.7c3.8,6.9,14.2,26,23.1,42.3c17.7,32.7,60.2,107,72.7,127.1
			c7.2,11.6,35.2,52.6,43.6,63.8c1.9,2.5,3.2,4.8,3,5c-0.2,0.3-1.8-0.1-3.5-0.9c-2.6-1.1-3.9-2.5-8.4-8.8c-2.9-4.1-5.1-7.7-4.8-8
			c0.3-0.3-0.6-1.5-1.8-2.7c-4-3.5-24.9-38.7-70.5-118.2c-27.3-47.6-34.1-59.8-37.4-67.4c-1.7-3.8-13.4-25.5-23.4-43.3
			c-5.8-10.3-14.3-27-19.1-37.4c-4.7-10.4-10.3-22.4-12.4-26.9C371.1,94.2,374.6,99.9,383.1,116.7L383.1,116.7z M416.4,98.4
			c2.8,4.2,7.4,11.3,10.3,15.8c2.9,4.5,5.6,8.3,6,8.4c1.5,0.3,2.7-1.7,2.9-4.8c0.2-3.4,1.1-3.9,1.6-0.8c0.2,1.1,1,5.3,1.8,9.2
			c0.8,3.9,1.9,14.7,2.3,24.1c0.5,9.3,1.2,16.9,1.6,16.9c1.9-0.1,0.5-32-1.9-42.9c-0.7-3.1-1-5.7-0.8-5.8c0.6,0,25.1,32.1,30.5,40.1
			c4.4,6.5,4.7,7.5,7,20.4c1.7,9.7,2.8,13.5,3.8,13.4c1.6-0.1,1.6,0.4-0.3-10.8c-1-6.1-1.1-8.2-0.1-7.6c1.1,0.6,1.7,0.3,2.8-1.4
			c0.8-1.3,1.7-1.9,2.2-1.6c1.7,1.5,2.4,17.5,1.9,40.8c-0.3,13.8,0.2,38.8,1.1,55.7c1.6,30.5,1.4,32.3-2.5,23.1
			c-2-4.6-3-25.7-2.9-60.1c0-14.1-0.3-25.8-0.8-26.3c-1.9-1.7-2.8,0.1-2.8,5.6c0.1,20.2,1.1,68,1.6,70.6l0.5,3.1l-1.2-2
			c-4.3-6.7-6.8-34.7-7.3-81.5c-0.1-10.9-0.6-19.9-1.1-20c-2-0.4-0.2,62.3,2.4,85l0.9,7.7l-3.4-6c-3.3-5.7-3.4-6.6-4.1-23.9
			c-0.4-9.9-1.2-17.5-1.6-17c-0.5,0.5-0.5,7.4-0.2,15.2c0.4,7.8,0.5,14.3,0.2,14.3c-0.3,0-2.9-4.3-5.9-9.6l-5.3-9.6l-1.7-33.1
			c-2.1-40.1-2.8-47.2-6.1-60.7c-3.6-15-5.4-13.3-2.2,2c1.8,8.7,3.2,23,4.8,48c1.2,19.6,2,35.7,1.7,35.7c-0.9,0-13.2-24.5-12.6-25.1
			c1-1.1-1.1-71.2-2.1-71.4c-0.5-0.1-0.6,12.2-0.3,27.2c0.9,36.4,1,42.7,0.5,42.3c-0.2-0.2-1.4-2.4-2.7-4.8c-2-3.7-2.3-6.1-2-13
			c0.5-13.4,0.3-41.5-0.3-42.1c-1.2-1.1-1.4,0.4-1.2,11.4c0.2,15.9-0.3,34.8-0.9,34.8c-0.3,0-1.4-1.7-2.5-3.9
			c-1.5-2.9-1.9-6-1.6-12.5c0.3-7.9-0.1-10.6-1.3-9.2c-0.3,0.3-0.5,3.4-0.6,6.8c0,3.4-0.4,6.3-0.7,6.4c-1.8,0.1-5-11-6.4-21.6
			c-4.5-35.8-7.5-63.3-6.9-63C411,90.6,413.7,94.2,416.4,98.4L416.4,98.4z M361.5,195.1c2.6,2.8,13.6,15.2,24.5,27.6
			c17.6,20.1,21.2,23.8,33.8,35c16.3,14.5,28.5,23.8,43.8,33.8l10.9,7.1l3.4,5.9l3.4,5.9l-12-6.8c-23-13-24.9-14.3-46.4-32.8
			c-12.7-10.9-20.5-17.2-20.9-16.7c-0.8,0.9,38.8,34.9,46,39.6c3,1.9,12,7.1,20.1,11.7l14.7,8.2l5,9.2l5,9.2l-10.1-5.8
			c-10.1-5.8-11.5-6.4-11.4-5.1c0.1,0.9,19,12,21.4,12.5c1.2,0.3,2.5,1.8,4.2,4.8c2.4,4.2,2.4,4.3,0.1,3c-1.3-0.8-6.4-4.4-11.4-8.1
			c-10.6-7.9-12.9-9.3-12.7-7.9c0.1,0.6,6.8,5.9,14.9,11.9c14.5,10.6,14.8,10.9,17.8,15.7c3.7,6,3.2,5.8-11.8-4.7
			c-16.9-11.8-17.1-11.9-17.6-11.3c-0.3,0.4-0.4,0.7-0.2,0.9c1.9,1.7,22.8,16.2,28.1,19.6c6.6,4.2,7,4.5,10,9.7c4,7,4.2,7.6,1.8,6.3
			c-1.1-0.6-2-1.5-1.9-2c0.1-0.5-3.5-3-7.7-5.5c-9.7-5.7-24.9-16.4-36.6-25.8c-8.2-6.5-11.7-8.7-11.6-7.1c0,0.9,24.7,19.6,35.3,26.9
			c5,3.4,9.1,6.4,9.1,6.7c0,0.7-13.9-6.8-25.5-13.6c-12.7-7.4-27.1-19.2-61.9-50.1l-32.6-29l-4.1-8.2c-4.6-9.2-5-10.7-2.9-9.9
			c0.9,0.3,2,0,2.7-0.7c0.9-1,0.4-2.9-1.6-7.4c-7.6-17-12.4-29.9-16.2-42.9c-2.3-7.9-4-14.4-3.9-14.5
			C356.6,190.1,358.9,192.3,361.5,195.1L361.5,195.1z M460.2,345.5c14.8,10.9,53.5,31.8,57.5,31.1c1.6-0.3,2.1,0.1,4.9,4.6
			c1.7,2.7,3.2,5.4,3.2,5.9c0.3,2.3-25.6-9.5-40-18.3c-5.6-3.5-14.5-9.7-19.9-14c-5.8-4.6-9.9-7.5-10.3-7.1
			c-0.8,0.9,15.8,14.3,25.3,20.3c12.6,8,35.6,19.3,43.6,21.5c3,0.8,3.8,1.4,5.5,4l2,3.1l-10-5.2c-9.4-4.9-13.4-6.4-10.8-4.1
			c0.6,0.5,5.7,3.5,11.3,6.5c10.5,5.7,13.9,8,13,9c-0.3,0.3-6.3-2.5-13.4-6.2c-7.1-3.8-13.4-6.8-14.1-6.8
			c-2.3,0.1,6.3,5.3,18.7,11.4c7.5,3.7,12.7,6.8,13.3,7.9c1,1.7,1,1.7-0.8,1c-1-0.4-8.7-4.3-17.2-8.7c-8.5-4.4-15.6-7.7-15.9-7.4
			c-0.7,0.8,2.9,2.9,21.5,12.4c8.9,4.5,16.6,8.9,17.2,9.8c1.4,2.1-18.1-6.6-35.3-15.8c-12.7-6.8-18.3-9.1-15.1-6.3
			c2.3,2.1,30.8,16.5,42.1,21.4c6.4,2.7,11.6,5.2,11.6,5.5c0.1,2.6-42.2-10.8-62.3-19.7c-7.9-3.5-25-14.5-36.6-23.5
			c-7.4-5.8-23.5-21.6-23.6-23.1c0-0.3,1.4-0.5,3.1-0.5c1.7,0.1,3.5-0.2,3.9-0.6c0.9-1-0.2-2.4-9.3-12.1
			c-6.8-7.2-20.7-24.3-24.5-30.3l-1.5-2.4l2.6,0.8c2.9,0.8,4.3,0,3.9-2.3c-0.1-0.7-3.4-6-7.2-11.7l-7-10.4l30.9,26.9
			C437.1,326.8,455.2,341.9,460.2,345.5L460.2,345.5z M499.4,192.5c4.4,7.9,8.5,14.5,9.2,14.8c0.9,0.4,1.8-0.3,3.1-2.3
			c1.5-2.3,1.9-2.6,2.4-1.4c0.4,0.8,1,1.6,1.5,2.1c1.6,1.4,6.6,18.2,8.7,28.8c2.1,10.7,3.7,43.7,3.7,73.6c0,13.7,0.3,16.6,1.6,15.2
			c1.8-2-0.2-76.9-2.3-87.4c-0.9-4.5-1.5-8.3-1.4-8.4c0.9-1,4,10.5,5.4,20.2c3,20.2,4,40.6,3.4,69.8c-0.6,30.7-0.6,44.9,0,49.9
			l0.4,3.1l-1.9-2.6c-2.8-3.7-3.2-5.6-3.4-18c-0.1-6.1-0.4-11.3-0.7-11.6c-1.2-1.1-2,1.7-1.7,5.8c0.2,2.5,0.3,6.9,0.2,10l-0.2,5.5
			l-1.6-2.6c-2.5-4-3.4-28.5-2.1-59.6c0.1-2.8-0.2-5-0.8-4.8c-1.2,0.4-2.2,32.7-1.4,47c0.5,9.5-0.1,11.9-1.8,7.2
			c-0.3-0.9-0.6-9.7-0.5-19.7c0.1-10-0.4-18.1-0.9-18.3c-0.6-0.1-1,1.5-1,3.6c0.1,4.4,0,24.2-0.1,28.1l-0.1,2.5l-2.8-4.4
			c-2.6-4.2-2.8-5-2.2-14.7c0.8-12.8,0.2-29.1-0.9-29c-0.5,0-0.8,4.1-0.6,9.1c0.3,9.3-0.3,25.1-1,25.8c-0.2,0.2-0.9-0.6-1.6-1.9
			c-0.7-1.3-1.1-5.8-0.9-10.1c0.6-15.6,0.4-27.9-0.5-27.4c-0.5,0.3-1,7.6-1.2,16.3c-0.1,8.7-0.4,15.8-0.5,15.8
			c-0.2,0-1.1-1.4-2.2-3.1c-1.3-2.2-1.7-4.9-1.4-9.6c0.3-3.6,0-6.7-0.5-6.8c-0.6-0.1-1.1,2.1-1.3,4.9c-0.1,2.8-0.5,4.9-0.8,4.6
			c-3.4-3-7-54.3-6.9-96.5c0.1-15.5,0-30.2-0.2-32.7c-0.2-2.5-0.3-4.6-0.2-4.6C491.4,178.3,495,184.6,499.4,192.5L499.4,192.5z
			 M535.7,234.7c0.5-0.2,4.1,8.6,6,14.4c1.9,5.9,3.7,7.8,5.4,5.8c0.5-0.5,1.2-0.7,1.6-0.4c1.7,1.5,4.5,10.1,7.4,22.5
			c1.8,7.5,3.8,14.1,4.6,14.8c2.4,2.2,2.2,17.4-0.5,41.7c-4.3,37.7-4.7,49.6-2.2,62.8c0.8,4.5,1.4,8.3,1.3,8.4
			c-1.5,1.7-4.7-23.1-4.8-37.1c-0.1-9.7-0.8-13.8-1.7-9.8c-0.6,2.5,0.5,27,1.6,34.9l0.9,6.5l-1.9-2.6c-2.1-2.8-4.4-17.9-5.2-34.6
			c-0.3-5.3-0.9-10-1.5-10.5c-1.2-1-0.8,9.4,0.9,26.4c1.1,10.8,1,11.8-0.6,9.6c-1.1-1.5-2.2-5.8-2.8-11.9c-0.6-5.3-1.5-9.5-2-9.5
			c-0.5,0-0.5,3.6-0.1,7.9l0.9,7.8l-2-2.8c-3.8-5.4-4.3-12.5-3.3-56.3c0.3-15.9,0.5-33.2,0.3-38.6c-0.4-11.1-3.1-35.1-4.9-43.2
			c-1-4.6-1-5.4,0.6-5.8C534.6,235,535.5,234.7,535.7,234.7L535.7,234.7z M469.6,399.1c4.3,0.7,12.3,3.3,19.2,6.2
			c6.5,2.7,17.8,7,25.2,9.6c16,5.6,22.7,8.5,34.1,14.5c8.7,4.6,12.2,7.1,14.5,10.6c1.2,1.8,0.7,1.8-6.7,0.7
			c-27.6-4.3-59.5-17.1-84.4-33.9c-14.8-10-14-9.3-11.4-9.1C461.3,397.8,465.5,398.4,469.6,399.1L469.6,399.1z M565.6,293.2
			c1.4,4.9,2.7,13.9,3.5,24.3c0.5,7,1.3,10.6,2.4,11.6c2,1.8,4.1,16.2,2.6,17.4c-0.6,0.5-1.2,6.5-1.3,13.5
			c-0.2,11.7-0.2,17.1-0.4,44.6c0,7.9-0.2,8.5-1,4.6c-2.2-10.5-3-23.5-2.5-45.5c0.3-12.9,0.1-23.3-0.4-23.1
			c-1.4,0.8-2.3,39.4-1.3,52.7c0.5,6.4,1.9,15.7,3.1,20.6c1.2,4.9,1.7,8.3,1.1,7.5c-0.6-0.9-2.1-2.8-3.3-4.4
			c-4.9-6.1-8.8-26.1-8.2-42.3c0.2-5.8,1.7-22.1,3.3-36.3c2.1-18.9,2.7-28.6,2.1-36.7c-0.4-6-0.7-11.1-0.6-11.2
			C564.8,290.5,565.2,291.6,565.6,293.2L565.6,293.2z M546.5,424.4c4.3,0.6,7.1,2.4,8.7,5.7c0.6,1.3-0.6,0.9-5.2-1.5
			c-3.3-1.8-6.5-3.5-7.1-3.8C541,423.9,542.1,423.8,546.5,424.4L546.5,424.4z M560.2,423.9c0.4-0.5,1.2-0.1,1.8,0.9
			c2.1,3.1,27.5,33.7,37.6,45.2c5.4,6.2,9.8,11.5,9.8,11.8c0.1,1.6-5.7-3-15.6-12.4c-10.7-10.2-19.7-20.6-32.9-38.2
			c-5.7-7.6-6-8.3-3.6-7.3C558.6,424.3,559.8,424.3,560.2,423.9L560.2,423.9z"/>
		<path class="st0" d="M368.2,107.4c2.4,2.7,4.7,5,5.2,5.1c1.6,0.4-0.2-2.5-4.3-7C363.4,99.4,362.6,101.1,368.2,107.4L368.2,107.4z"
			/>
		<path class="st0" d="M365.7,111.9c0.5,1.7,14.8,19.3,15.6,19.2c1.4-0.1,0.7-1.1-6.4-10C368.3,112.7,365,109.4,365.7,111.9
			L365.7,111.9z"/>
		<path class="st0" d="M364.9,140.6c3.8,4.1,7.4,7.5,7.9,7.7c2,0.5-0.5-2.9-6.9-9.4C356.7,129.5,355.9,131,364.9,140.6L364.9,140.6z
			"/>
		<path class="st0" d="M385.5,197.9c5,5.3,9.9,10.6,10.8,11.7c1.1,1.4,1.8,1.7,2.1,1c0.7-1.6-20.4-24.1-21.5-22.9
			C376.6,188,380.5,192.6,385.5,197.9L385.5,197.9z"/>
		<path class="st0" d="M384.3,191.3c3.5,4.3,15.1,14.4,15.8,13.7c0.3-0.4-1.7-2.7-4.9-5.6c-3-2.7-6.9-6.5-8.7-8.5
			C382.8,186.7,380.9,187.1,384.3,191.3L384.3,191.3z"/>
		<path class="st0" d="M421.4,222.4c6.1,4.9,10.8,8.3,11.6,8.2c1-0.1-0.5-1.6-5.7-5.7c-3.9-3.1-8.8-7.1-10.9-9
			c-2.5-2.2-4.1-3.2-4.5-2.7C411.4,213.8,413.9,216.3,421.4,222.4L421.4,222.4z"/>
		<path class="st0" d="M422.2,229.1c7,5.7,12.5,9.8,13.3,9.7c0.9-0.1-1.3-2.3-7.8-7.5c-5.1-4.1-10.7-8.8-12.6-10.5
			c-2.2-2-3.8-2.9-4.2-2.4C410.4,219,413.4,221.8,422.2,229.1L422.2,229.1z"/>
		<path class="st0" d="M427,130.8c0,3.9,0.5,7.2,0.9,7.1c0.9,0,1.3-13.2,0.5-14.8C427.4,121.3,426.9,124.1,427,130.8L427,130.8z"/>
		<path class="st0" d="M444.4,195.2c-0.3,15.4-0.1,18.3,1.2,16.8c0.6-0.7,1.6-33.7,1-34.2C445.3,176.7,444.7,181.3,444.4,195.2
			L444.4,195.2z"/>
		<path class="st0" d="M366.5,213c0.9,1.7,13.4,17.4,14.8,18.7c0.7,0.6,1.4,0.8,1.7,0.5c0.6-0.7-15.3-20.4-16.4-20.3
			C366.2,211.8,366.1,212.3,366.5,213L366.5,213z"/>
		<path class="st0" d="M427.9,298.1c7.8,5.7,24.8,16.8,25.6,16.8c1.9-0.1-0.2-1.9-9.5-8.1c-5.6-3.7-12.2-8.2-14.8-10
			c-2.5-1.8-5.1-3.1-5.7-3C422.9,294,424.2,295.3,427.9,298.1L427.9,298.1z"/>
		<path class="st0" d="M431.9,293.7c4,3.5,21.5,15.4,22.7,15.4c1.7-0.1,1.1-0.5-12.3-10.1c-6.3-4.5-11.8-8-12-7.7
			C430,291.6,430.7,292.6,431.9,293.7L431.9,293.7z"/>
		<path class="st0" d="M455.7,306.7c0,1,21.8,14,22.3,13.4c0.7-0.8-1-2.1-11.2-8.3C457.8,306.3,455.6,305.3,455.7,306.7L455.7,306.7
			z"/>
		<path class="st0" d="M477.2,334.1c3.5,3.1,16.3,12,21,14.5c1.1,0.6,1.9,0.7,2,0.2c0.1-0.5-3.9-3.5-8.8-6.7
			c-4.9-3.3-10.7-7.4-12.9-9.3c-2.2-1.9-4.2-3.1-4.5-2.7C473.7,330.4,475.1,332.3,477.2,334.1L477.2,334.1z"/>
		<path class="st0" d="M467.8,371.3c11.2,9.7,15,12.6,16.3,12.5c1.4-0.1,0.9-0.7-3.4-3.9c-2.8-2.1-9.8-8-15.6-13.2
			c-7.3-6.5-10.8-9.2-11.2-8.7C453.4,358.5,457.4,362.4,467.8,371.3L467.8,371.3z"/>
		<path class="st0" d="M468.7,366.3c6.7,6,22.1,17.2,23.4,17.1c1-0.1-0.1-1.2-3.7-3.9c-2.8-2.1-8.9-6.9-13.7-10.7
			C466.1,361.9,461.8,360.1,468.7,366.3L468.7,366.3z"/>
	</g>
</g>
</svg>
