<?xml version="1.0" encoding="utf-8"?>
<!-- Generator: Adobe Illustrator 21.0.0, SVG Export Plug-In . SVG Version: 6.00 Build 0)  -->
<svg version="1.1" id="Layer_1" xmlns="http://www.w3.org/2000/svg" xmlns:xlink="http://www.w3.org/1999/xlink" x="0px" y="0px"
	 viewBox="0 0 1080 1080" style="enable-background:new 0 0 1080 1080;" xml:space="preserve">
<style type="text/css">
	.st0{fill:#231F20;}
	.st1{fill:#939598;}
	.st2{fill:#279599;}
</style>
<g>
	<path class="st1" d="M540.4,867.8l-15.5-18.3c-8.8-10.4-215-256-215-407.2c0-126.9,103.2-230.1,230.1-230.1
		s230.1,103.2,230.1,230.1c0,143.9-205.7,396.3-214.4,407L540.4,867.8z M540,252.2c-104.8,0-190,85.3-190,190.1
		c0,114.2,142.2,302.2,190,362.3c47.6-61.3,190.1-253.7,190.1-362.3C730.1,337.5,644.8,252.2,540,252.2z M540,550
		c-29.3,0-56.8-11.4-77.5-32.1c-42.7-42.7-42.7-112.3,0-155.1c20.7-20.7,48.2-32.1,77.5-32.1s56.8,11.4,77.5,32.1
		c42.7,42.8,42.7,112.3,0,155.1l0,0C596.8,538.6,569.3,550,540,550z M540,370.8c-18.6,0-36.1,7.2-49.2,20.4
		c-27.1,27.1-27.1,71.3,0,98.5c13.1,13.1,30.6,20.4,49.2,20.4c18.6,0,36.1-7.2,49.2-20.4l0,0c27.1-27.1,27.1-71.3,0-98.5
		C576.1,378,558.6,370.8,540,370.8z"/>
</g>
</svg>
