<?xml version="1.0" encoding="utf-8"?>
<!-- Generator: Adobe Illustrator 21.0.0, SVG Export Plug-In . SVG Version: 6.00 Build 0)  -->
<svg version="1.1" xmlns="http://www.w3.org/2000/svg" xmlns:xlink="http://www.w3.org/1999/xlink" x="0px" y="0px"
	 viewBox="0 0 512 512" style="enable-background:new 0 0 512 512;" xml:space="preserve">
<style type="text/css">
	.st0{fill:none;stroke:#279599;stroke-width:18;stroke-miterlimit:10;}
	.st1{fill:none;stroke:#000000;stroke-width:18;stroke-miterlimit:10;}
</style>
<g id="Layer_1">
	<path class="st0" d="M-276,62c-74.4,0-134.9,60.5-134.9,134.9c0,93.5,135,253.1,135,253.1s134.7-164.3,134.7-253.1
		C-141.1,122.5-201.6,62-276,62z M-235.3,236.4c-11.2,11.2-26,16.8-40.7,16.8s-29.5-5.6-40.7-16.8c-22.4-22.4-22.4-58.9,0-81.4
		c10.9-10.9,25.3-16.9,40.7-16.9s29.8,6,40.7,16.9C-212.9,177.4-212.9,213.9-235.3,236.4z"/>
	<path class="st1" d="M256,62c-74.4,0-134.9,60.5-134.9,134.9c0,93.5,135,253.1,135,253.1s134.7-164.3,134.7-253.1
		C390.9,122.5,330.4,62,256,62z M296.7,236.4c-11.2,11.2-26,16.8-40.7,16.8c-14.7,0-29.5-5.6-40.7-16.8c-22.4-22.4-22.4-58.9,0-81.4
		c10.9-10.9,25.3-16.9,40.7-16.9s29.8,6,40.7,16.9C319.1,177.4,319.1,213.9,296.7,236.4z"/>
</g>
<g id="Layer_2">
</g>
</svg>
