<?xml version="1.0" encoding="utf-8"?>
<!-- Generator: Adobe Illustrator 21.0.0, SVG Export Plug-In . SVG Version: 6.00 Build 0)  -->
<svg version="1.1" id="Layer_1" xmlns="http://www.w3.org/2000/svg" xmlns:xlink="http://www.w3.org/1999/xlink" x="0px" y="0px"
	 viewBox="0 0 512 512" style="enable-background:new 0 0 512 512;" xml:space="preserve">
<style type="text/css">
	.st0{fill:#58595B;}
</style>
<g>
	<g>
		<g>
			<g>
				<path class="st0" d="M427.4,240.4h-32.1c-7.2-64.9-58.9-116.5-123.7-123.7V84.6c0-8.6-7-15.6-15.6-15.6c-8.6,0-15.6,7-15.6,15.6
					v32.1c-64.9,7.2-116.5,58.9-123.7,123.7H84.6c-8.6,0-15.6,7-15.6,15.6c0,8.6,7,15.6,15.6,15.6h32.1
					c7.2,64.9,58.9,116.5,123.7,123.7v32.1c0,8.6,7,15.6,15.6,15.6c8.6,0,15.6-7,15.6-15.6v-32.1c64.9-7.2,116.5-58.9,123.7-123.7
					h32.1c8.6,0,15.6-7,15.6-15.6C443,247.4,436,240.4,427.4,240.4z M256,365.1c-60.2,0-109.1-48.9-109.1-109.1
					S195.8,146.9,256,146.9S365.1,195.8,365.1,256S316.2,365.1,256,365.1z"/>
			</g>
		</g>
		<circle class="st0" cx="256" cy="256" r="48.3"/>
	</g>
</g>
</svg>
