<?xml version="1.0" encoding="utf-8"?>
<!-- Generator: Adobe Illustrator 21.0.0, SVG Export Plug-In . SVG Version: 6.00 Build 0)  -->
<svg version="1.1" id="Layer_1" xmlns="http://www.w3.org/2000/svg" xmlns:xlink="http://www.w3.org/1999/xlink" x="0px" y="0px"
	 viewBox="0 0 1077.8 609" style="enable-background:new 0 0 1077.8 609;" xml:space="preserve">
<style type="text/css">
	.st0{opacity:0.4;fill:#12767F;enable-background:new    ;}
	.st1{fill:#EBF3FA;}
	.st2{opacity:0.5;fill:#76CCCD;enable-background:new    ;}
	.st3{opacity:0.3;fill:#76CCCD;enable-background:new    ;}
	.st4{fill:#149EA5;}
	.st5{fill:#12767F;}
	.st6{fill:#05666B;}
	.st7{opacity:0.8;fill:#EBF3FA;enable-background:new    ;}
	.st8{fill:#62BC54;}
	.st9{fill:#C33C27;}
	.st10{fill:#E45D4B;}
	.st11{fill:#DE4827;}
	.st12{fill:#F9DDBF;}
	.st13{fill:#593625;}
	.st14{opacity:0.4;fill:#F9DDBF;enable-background:new    ;}
	.st15{fill:#233862;}
	.st16{fill:#FFB27D;}
	.st17{fill:#ED975D;}
	.st18{fill:#FFFFFF;}
	.st19{fill:#EFC59E;}
	.st20{fill:#2B478B;}
	.st21{fill:#2C3A64;}
	.st22{fill:#FCB033;}
	.st23{fill:#FFDC8F;}
	.st24{fill:#3F61A5;}
	.st25{fill:#ED985F;}
	.st26{fill:#F8AEAB;}
	.st27{fill:#EBF2FF;}
	.st28{fill:#32B2B2;}
</style>
<rect class="st0" width="1077.8" height="609"/>
<g>
	<path class="st1" d="M98.6,607.7l-0.1-0.2c0,0-0.1-0.2-0.1-0.3c-0.3-0.7-131-192.8,72.1-326.5c79.5-52.3-5-86.9,58.2-145.1
		c72.6-66.9,151.9,7.1,232.7-23.2c14.3-5.4,28.6-14,42.9-27.2c33.7-31.1,79.6-44.9,126-48c90.2-6.1,191.8,28,244.2,77.9
		c10.5,10,58.5,62,20.7,133.4c-23.9,45.1,76.2,88.1,111.7,139.6c60.2,87.2,40.8,155.5,20.9,191.9c-2.5,4.6-5.1,8.7-7.4,12.3
		c-7,10.5-12.7,16.3-12.9,16.7L98.6,607.7z"/>
	<path class="st2" d="M828.6,301.7c-1.7-31.5-54-32.9-54-32.9s-33.3,40.4-43.5,39.5c-10.2-0.9,13.3-42.6,13.3-42.6
		c-18.9-6-67,8.4-67,8.4s-9.8,61.5-19.5,58.2c-9.7-3.4,11.5-54,11.5-54c-19.8,1.6-41.8,19.7-41.8,19.7
		c-29.3,30.8,11.8,66.8,11.8,66.8s-0.3,22.1,4.7,20.5c0,0-0.4-0.9-0.6-2.6c0.2,0.8,0.4,1.7,0.6,2.6c4.7,20.5,47.5,32.8,72.8,33
		s16.2-8.9,5.5-22.8c-10.7-13.9-38.6-16.8-45.8-22.8c-7.1-6.1,5.6-7.9,21.5-3.2s20.5,22.5,46.1,30.6c25.6,8,55.9-36.8,55.9-36.8
		c-19.2,1.8-49.4-15-49.3-21.5c0.1-6.5,47.8,4.3,55.6,4C814.1,345.4,830.3,333.3,828.6,301.7z"/>
	<path class="st2" d="M162.1,312.9c1.6-28.8,49.4-30.1,49.4-30.1s30.5,37,39.8,36.2c9.3-0.8-12.2-39-12.2-39
		c17.2-5.5,61.3,7.7,61.3,7.7s9,56.3,17.9,53.2c8.8-3.1-10.5-49.4-10.5-49.4c18.1,1.5,38.3,18,38.3,18
		c26.8,28.1-10.8,61.1-10.8,61.1s0.3,20.2-4.3,18.7c0,0,0.4-0.8,0.5-2.3c-0.2,0.7-0.4,1.5-0.5,2.3c-4.3,18.7-43.5,30-66.6,30.2
		s-14.8-8.1-5-20.8s35.3-15.3,41.9-20.9c6.5-5.5-5.1-7.2-19.6-2.9s-18.8,20.6-42.1,28c-23.4,7.3-51.1-33.7-51.1-33.7
		c17.6,1.6,45.2-13.8,45.1-19.7c-0.1-5.9-43.7,4-50.9,3.7C175.3,352.9,160.5,341.8,162.1,312.9z"/>
	<path class="st3" d="M664.1,188.5c-7.5-17.1-36.8-7-36.8-7s-10.1,29.3-15.9,31c-5.8,1.6-1.5-26.4-1.5-26.4
		c-11.7,0.6-35.4,18.6-35.4,18.6s7.3,36.1,1.3,36.3c-6.1,0.2-4.9-32.3-4.9-32.3c-10.6,5-19.1,19.6-19.1,19.6
		c-9.8,23.1,20.4,34.6,20.4,34.6s4.4,12.3,6.9,10.4c0,0-0.4-0.4-0.9-1.3c0.3,0.4,0.6,0.8,0.9,1.3c6.9,10.4,33.2,8.3,47.2,3.2
		c14-5.2,7.1-8.3-1.7-13.8s-24.9-1.3-30.1-3.1c-5.2-1.9,1.4-5.5,11.2-6.3c9.8-0.7,16.1,8.2,31.9,7.4c15.8-0.9,23.3-32,23.3-32
		c-10.3,5-30.5,1.9-31.8-1.7s27.4-7.5,31.7-9.3C665.2,215.7,671.6,205.6,664.1,188.5z"/>
	<g>
		<path class="st4" d="M752.1,323.6c-35,29.4-28.6,48-45.1,105.4c-12.2,42.5-56.3,62.6-56.3,62.6s-54.1-91.9-20.7-131.4
			c4.7-5.6,9.7-10.7,14.9-15.4c20.1-18.3,42.4-29.9,59.7-37h0.1c0.1,0,0.1,0,0.2-0.1l0.4-0.1c6-2.4,11.4-4.3,16-5.7
			c9-2.8,18.8-0.5,25.5,6.1c3.1,3,5.1,5.5,6.4,7.5C754.9,318.1,754.5,321.6,752.1,323.6z"/>
		<path class="st5" d="M679.8,349.1c2.4,31-30.1,41.8-40.9,36.1c-5.7-3-0.4-22.5,6-40.3c20.1-18.3,42.4-29.9,59.7-37
			C700.4,309.7,677.7,320.9,679.8,349.1z"/>
		<path class="st5" d="M268.6,301.6c-22.1,0-41.3,15-46.8,36.4l-20.6,81.1c-5.4,21.3,10.7,41.9,32.6,41.9h84.5V301.6H268.6z
			 M301.4,336.9l-17.9,92.7c-1.3,5.7-6.5,9.8-12.4,9.7l-30.6-0.4c-10.6-0.1-18.4-9.8-16.4-20.2l15.5-77.9
			c2.4-10.5,9.4-15.2,23.5-14.6l29-0.4C298,325.8,302.5,331.1,301.4,336.9z"/>
		<path class="st5" d="M668.5,410c0.2,72.5-40.1,136-99.6,168.9c-27.3,15.1-58.7,23.7-92.1,23.8c-106.2,0.2-192.4-85.8-192.4-192
			c0-45.6,15.9-87.4,42.4-120.3c1.9-2.3,3.8-4.6,5.8-6.9h287.7c2,2.2,3.9,4.5,5.8,6.9C652.6,323.1,668.4,364.7,668.5,410z"/>
		<path class="st4" d="M668.5,410c0.2,72.5-40.1,136-99.6,168.9c-97.3-10-173.3-97.2-173.3-203.3c0-33.1,7.4-64.4,20.6-92.1h204.2
			c2,2.2,3.9,4.5,5.8,6.9C652.6,323.1,668.4,364.7,668.5,410z"/>
		<path class="st6" d="M391.3,607.8H573c6.8,0,11.7-6.1,9.9-12.3l-4.6-15.6H385.6l-4.3,15.8C379.7,601.8,384.6,607.8,391.3,607.8z"
			/>
		<path class="st6" d="M626.2,290.3H326.9c1.9-2.3,3.8-4.6,5.8-6.9h287.8C622.4,285.7,624.3,288,626.2,290.3z"/>
		<g>
			<path class="st4" d="M630.8,283.5H322.3c-6.7,0-9.8-8.3-4.8-12.7c24.2-21,53.4-37.3,85.9-47.2c19.7-6,40.5-9.6,62.1-10.6
				c3.7-0.2,7.4-0.2,11.1-0.2s7.4,0.1,11.1,0.2c57.3,2.5,109.1,24,148,57.8C640.6,275.1,637.5,283.5,630.8,283.5z"/>
		</g>
		<path class="st5" d="M498.6,193.9c0,3.3-0.7,6.4-2,9.2c-3.5,7.6-11.2,12.9-20.1,12.9c-12.2,0-22-9.9-22-22
			c0-8.9,5.3-16.6,12.9-20.1c2.8-1.3,5.9-2,9.2-2C488.7,171.8,498.6,181.7,498.6,193.9z"/>
		<path class="st4" d="M498.6,193.9c0,3.3-0.7,6.4-2,9.2c-2.8,1.3-5.9,2-9.2,2c-12.2,0-22-9.9-22-22c0-3.3,0.7-6.4,2-9.2
			c2.8-1.3,5.9-2,9.2-2C488.7,171.8,498.6,181.7,498.6,193.9z"/>
		<path class="st7" d="M489.2,182.8c-0.2-3.2-2.9-6.6-7.1-7.1c-3.2-0.4-6.6,0.6-6.4,3.9c0.2,3.2,2.9,1.3,6.7,5.8
			C484.3,187.6,489.4,186,489.2,182.8z"/>
		<path class="st5" d="M513.7,283.5H322.3c-6.7,0-9.8-8.3-4.8-12.7c24.2-21,53.4-37.3,85.9-47.2C403.4,223.5,409.6,270,513.7,283.5z
			"/>
	</g>
	<g>
		<path class="st8" d="M289.2,255.2c0,0-40,2.6-40.6-13.5C247.9,225.6,289.2,255.2,289.2,255.2S289.1,252.8,289.2,255.2z"/>
		<path class="st8" d="M266.8,225.4c9-10.8,22.4,29.9,22.4,29.9S257.7,236.2,266.8,225.4z"/>
	</g>
	<g>
		<path class="st8" d="M541.5,180.3c0,0,51.8-9.9,47.3-30.7C584.2,128.8,541.5,180.3,541.5,180.3S540.8,177.1,541.5,180.3z"/>
		<path class="st8" d="M560.1,134.8c-15.1-10.8-18.7,45.5-18.7,45.5S575.3,145.6,560.1,134.8z"/>
	</g>
	<g>
		<path class="st8" d="M821.1,499.2c0,0,24.6,21.8,33.2,11.7C862.8,500.7,821.1,499.2,821.1,499.2S822.3,497.6,821.1,499.2z"/>
		<path class="st8" d="M850.7,491.1c-0.4-11.6-29.6,8.1-29.6,8.1S851.1,502.6,850.7,491.1z"/>
	</g>
	<g>
		<g>
			<path class="st9" d="M772.2,586.7c0.4,8.6-13.9,21.1-68.5,21.1c-33.3,0-126.3,0-126.3,0c-17.6-2-28.2-7.5-28.4-11.5
				c-0.4-8.6,49.3-17.7,110.9-20.3S771.8,578.1,772.2,586.7z"/>
			
				<ellipse transform="matrix(0.9991 -4.290870e-02 4.290870e-02 0.9991 -24.1084 28.8466)" class="st10" cx="659.9" cy="576" rx="191" ry="26.6"/>
			
				<ellipse transform="matrix(0.9991 -4.291080e-02 4.291080e-02 0.9991 -23.9981 28.8413)" class="st9" cx="659.8" cy="573.4" rx="128.9" ry="15.4"/>
		</g>
		<path class="st11" d="M772.5,379.7l13.6,49.7C803.3,492,768.5,558.8,706,576c0,0-35.7,6.6-43.9,7.1
			c-57.3,3.7-111.6-33.3-127.3-90.7l-11.6-44.3c-0.7-2.7,0.3-5.4,3-6.1l240.1-65.8C768.9,375.4,771.7,377,772.5,379.7z"/>
		<path class="st10" d="M708.3,397.3l13.6,49.7c15,54.6-6.2,132.8-59.9,136.1c-57.3,3.7-111.6-33.3-127.3-90.7l-11.6-43.5
			c-0.7-2.7,0.3-6.2,3-7l176-48.2C704.7,393,707.5,394.6,708.3,397.3z"/>
		<path class="st12" d="M758.9,395.8c-4,2.7-8.8,5.6-14.3,8.5c-1,0.5-2.1,1.1-3.1,1.6c-0.3,0.2-0.7,0.3-1,0.5
			c-0.5,0.2-0.9,0.5-1.4,0.7s-1,0.5-1.5,0.7c-0.1,0-0.1,0.1-0.2,0.1c-0.4,0.2-0.8,0.4-1.3,0.6c-0.5,0.2-1,0.5-1.5,0.7
			s-1,0.5-1.5,0.7l0,0c-0.6,0.3-1.2,0.5-1.8,0.8l0,0l-1.2,0.5c-3.3,1.5-6.7,3-10.3,4.5c-18.6,7.7-41.1,15.4-65.6,22.2h-0.1
			c-46.2,12.7-88,18.7-111.7,17.1c-0.8-0.1-1.6-0.1-2.4-0.2c-2.4-0.2-4.5-0.5-6.5-0.9c-1.6-0.3-3.1-0.7-4.4-1.2
			c-0.7-0.2-1.3-0.5-1.9-0.8c-1.4-0.7-2.5-1.4-3.4-2.3c-0.8-0.8-1.3-1.7-1.6-2.6c-2.9-10.7,27.9-29,73.8-45.5
			c13.6-4.9,28.5-9.6,44.2-13.9c15.8-4.3,31.1-7.9,45.4-10.6c47.8-9.2,83.5-9.2,86.5,1.5C773.4,383.3,768.5,389.2,758.9,395.8z"/>
		<path class="st13" d="M744.6,404.3c-1,0.5-2.1,1.1-3.1,1.6c-0.3,0.2-0.7,0.3-1,0.5c-0.5,0.2-0.9,0.5-1.4,0.7s-1,0.5-1.5,0.7
			c-0.1,0-0.1,0.1-0.2,0.1c-0.4,0.2-0.8,0.4-1.3,0.6c-0.5,0.2-1,0.5-1.5,0.7s-1,0.5-1.5,0.7l0,0c-0.6,0.3-1.2,0.5-1.8,0.8l0,0
			l-1.2,0.5c-3.3,1.5-6.7,3-10.3,4.5c-18.6,7.7-41.1,15.4-65.6,22.2h-0.1c-19.7,5.4-38.6,9.6-55.6,12.5c-22.9,3.9-42.5,5.5-56.1,4.6
			c-0.8-0.1-1.6-0.1-2.4-0.2c-2.4-0.2-4.5-0.5-6.5-0.9c-0.8-4.1,7.5-9.4,19.1-14.6l0,0c13.6-6.1,31.7-12.2,44.7-16l0,0
			c19.5-5.8,40.4-10.5,62.2-13.9C689.9,404.8,718.7,403.2,744.6,404.3z"/>
		<g>
			<path class="st11" d="M782.7,498.7l-2.7-6.9c14.5-5.6,29.2-17.2,40.3-31.8c10.9-14.3,13-29.2,12.8-41.5
				c-0.2-11.5-4.6-19.2-16.2-21.5c-5-1-12.5,0.5-19.5,4c-17.1,8.6-20.3,34.5-20.4,34.7l-13.9-16.6c0.4-1.1,8.7-20.9,28.6-30.9
				c8.8-4.4,21.3-4.8,31.4-1.4c14,4.8,21,16.7,21.3,31.2c0.3,13.9-6.4,30.8-18.3,46.4C814.3,480.1,798.5,492.6,782.7,498.7z"/>
		</g>
		<path class="st12" d="M606.7,530.4c0,0-17.5-15-25.1-35c-7.5-19.9-17-29.3-23.6-24.1c-6.6,5.3,8.9,41,18,54.5
			C585.2,539.4,618.3,542.7,606.7,530.4z"/>
		<path class="st13" d="M541.9,440.4c0,0-26.6,10.9-36.7-7.8c-10.1-18.7,8.2-31.9,16.3-22.9C532.8,422.3,523.4,433.1,541.9,440.4z"
			/>
		<path class="st14" d="M744.6,404.3c-3.6,1.9-7.4,3.8-11.5,5.7c-5.4-1.6-12.3-2.9-17.6-1.6c-9.9,2.4-20.6,8.9-24.6,1.6
			c-3.9-7.2-91,12.8-93.4,13.4c19.5-5.8,40.4-10.5,62.2-13.9C689.9,404.8,718.7,403.2,744.6,404.3z"/>
		<path class="st14" d="M598.6,450.6c-22.9,3.9-42.5,5.5-56.1,4.6c-0.8-0.1-1.6-0.1-2.4-0.2c-2.4-0.2-4.5-0.5-6.5-0.9
			c-0.8-4.1,7.5-9.4,19.1-14.6c-0.5,0.3-8.3,5-6.8,7.4c1.6,2.5,19.3-6.8,24.3-1.6C574.8,450,592,442.9,598.6,450.6z"/>
	</g>
	<g>
		<g>
			<path class="st15" d="M911,321.2c0,0-8.1,4.8-3.1,14.1c0,0-7.1-1.3-8.7-3.4c0,0,0.2,0.9,0.4,1.3c0,0-6.6-1.5-8.7-4.2
				c-2.1-2.7,8.4-35.5,25.4-27c0,0,15.6,2.9,9.5,20.2s-0.3,18.8-0.3,18.8s-1.8,0.4-2.6,0.2c0,0-1-0.7-1.1-1.4c0,0,0,1,0.2,1.4
				c0,0-6.4-1.1-8.9-4.2C910.7,333.8,909.2,324.6,911,321.2z"/>
			<path class="st16" d="M899.3,349.1L899.3,349.1C899.2,349.1,899.2,349.1,899.3,349.1z"/>
			<path class="st16" d="M919.1,343.4c0.2,2.1,0.5,4.1,0.7,5c0.3,2.1-19.2,0.7-20.4,0.7c0.9-0.4,3.5-8.8,4.3-12
				c1-3.9,1.8-8.1,1.8-8.1l13.8,0.9l0.8,0.1c-0.5,1.9-0.9,3.6-1.1,5.3c0,0.2-0.1,0.4-0.1,0.7C918.5,337.7,918.8,340.7,919.1,343.4z"
				/>
			<path class="st15" d="M903.5,327.7c0,0-2.2-7.1-1.8-12.5c0.3-3.9,5.8-17.1,19.1-11.5c0,0,3.9,1.5,7,5c2.5,2.8,5.6,8.3-2.4,19
				l-2.3,3.7L903.5,327.7z"/>
			<path class="st17" d="M919.1,343.4c-9.6-2.8-13.7-13.9-13.7-13.9c4.1,0.1,9.4,2.9,13.5,5.8c0,0.2-0.1,0.4-0.1,0.7
				C918.5,337.7,918.8,340.7,919.1,343.4z"/>
			<path class="st16" d="M919.7,339.5c0,0-17.4-4.3-14.5-15.1c2.8-10.8,2.5-18.6,13.7-16.3s12.3,7,12.2,10.8
				C931.1,322.7,924.3,340.3,919.7,339.5z"/>
			<path class="st15" d="M932.2,312.7c-5.2-8.2-11.3-9-11.4-9c-4.4-3-10.3,4.3-10.3,4.3c-3.2,7.4-10,10.4-10,10.4s2.6,2.8,10.4,2.8
				c2.4,0,4.8-1,7-2.5c-4.2,4.2-9.2,6.6-9.2,6.6c9.3-1.6,15.8-11.9,17-13.8c1.3,2,2.5,4.4,2.6,5.8c0.1,3-1,8.7,0.7,9
				C929.1,326.3,935.7,318.2,932.2,312.7z"/>
			<path class="st18" d="M917,332.5c0,0,0.2,1.6,1.3,2c1,0.4,3.8,1.1,4.1,0.9c0.3-0.2,1.3-1.5,1.3-1.5S919.3,332.4,917,332.5z"/>
			<path class="st16" d="M910.5,497.5c-0.2,0.9-0.4,1.8-0.7,2.7c-1.3,5.4-2.5,10.5-3.3,14.7c-1,5.5-1.2,9.6,0.1,11.3
				c5.4,7.1,0,63.2,0,63.2l-6.1,6.3c0,0-10.7-55.5-13.6-64.1c-1.3-3.9-3.2-20.8-4.9-38c-0.1-0.9-0.2-1.7-0.3-2.6
				c-0.3-3-0.6-6-0.8-8.9c-1.5-16.3-2.7-30.2-2.7-30.2s11.3-8,21.6-8.9c6.1-0.5,11.8,1.4,14.6,8.9
				C918.5,462.7,914.4,481.4,910.5,497.5z"/>
			<path class="st17" d="M908.8,501.2c-7.9-8.6-13.2-21-22.8-38.4c-0.8-8.8,6.1-17.2,13.9-19.8c6.1-0.5,11.8,1.4,14.6,8.9
				C918.5,462.7,912.7,485.2,908.8,501.2z"/>
			<path class="st16" d="M941.2,390.4l41.4,10.7v4.8c0,0-41.2-0.5-43.8-5.1C936.1,396.3,941.2,390.4,941.2,390.4z"/>
			<path class="st12" d="M961.5,390.4c-3.9-5.6-13.8-2-20.5-20.9l0,0c-3.6-10-4.7-15.3-6.7-18.2c-2.5-3.5-10.8-3.6-12.7-3.7
				c-1.3-0.1,1.2-5.8-1.2-6.4c-1.9-0.5-4.5,1.8-6.5,2.3c-4,1.1-9.7-1.7-11.7-2.4c-1-0.3-2.3,1.5-2.1,2.6c0.2,1.3-3.2,2.5-18.3,2.8
				c-15.1,0.2-23.6,3.4-27.6,0.4S831,328,831,328l-6.2,6c0,0,6.3,12.5,15.1,22.3c4.1,4.5,8.7,8.4,13.5,10.2
				c14.5,5.5,22.2,3.5,28.4,5l0,0c-0.6,14.9,3.6,37,3.6,37c16.8,10.1,37.2,1.2,37.2,1.2s-0.4-2-0.3-2.5c0.1-0.4,0.4-3.7,0.5-4
				c0.2-0.8,4.4-5.1,4.4-5.1s1.2,2.7,1.6,3.6c3.1,6.2,9,9.9,12.3,10.4c7.7,1.1,12.4-1,15.9-4.7C962.7,401.6,964.2,394.2,961.5,390.4
				z"/>
			<path class="st16" d="M982.6,549.6l-1.9,8c0,0-56-28.9-63.2-34.5c-2.9-2.2-6.7-14.3-10.3-28c-5.3-20.4-10-44.4-10-44.4
				S905,420.5,926,439c12.6,11,10.6,32.3,9.2,48.9c-0.9,11.1-1.6,20.1,2.6,22.4c8.1,4.5,32,25.4,39.5,39.8L982.6,549.6z"/>
			<path class="st19" d="M927.3,398.2c0,0-2-4.8-3.5-12.8c-0.4-2.3-17.8,15.1-13.4,22.1C914.6,414.5,927.3,398.2,927.3,398.2z"/>
			<path class="st9" d="M952.3,470.4c0,0-5.5,1.6-13.6,3.3c-16.9,3.6-45.5,7.8-61.9,0.5c0,0,1-24.1,3.9-42.3
				c2.3-14.6,4.4-24.1,4.4-24.1s15.2,3.8,30.7,0.9c0.1,0,0.3-0.1,0.4-0.1c2-0.4,4.1-0.9,6-1.6c0,0,11.7,16.7,17.7,28.4
				C944.1,443.4,952.3,470.4,952.3,470.4z"/>
			<path class="st16" d="M982.6,401.1c0,0,7.6-3.7,10.6-4.1c3-0.4,8.1-0.5,8.1,0s-5.4,3.9-6.9,4.1c-1.4,0.2-4.2,2.3-3.4,2.5
				s5.3-0.8,5.4,0c0.1,0.8-2.7,1.3-3.2,1.9c-0.5,0.6-2.2,1.3-4.9,1c-2.7-0.4-5.7-0.5-5.7-0.5L982.6,401.1L982.6,401.1z"/>
			<path class="st20" d="M993.7,552.7C993.7,552.7,993.6,552.7,993.7,552.7c-0.3-0.1-1.5-0.5-2.2-2.3c-0.5-1.2-0.7-2.2-1.1-3.4
				l-1.9-3.3c-2-2.6-2.7-2-2.7-2s-0.5,0.7-1.3,1.5c-1.3,1.4-3.2,3.5-4.6,4c-1,0.4-1.6,1-2,1.5c-0.5,0.7-0.6,1.3-0.6,1.3
				s4.1,0.7,3.7,2.7c-0.7,3.9-0.5,4.6-0.5,4.7l0,0c0,0,6.9,3.6,9.1,4.3c3.9,1.3,6,3.9,7.3,5.2c0.5,0.5,1.2,0.7,1.9,0.6
				c1-0.2,2.4-0.5,2.7-1.1L993.7,552.7z"/>
			<path class="st20" d="M912.8,598.7l-3.3,1.8c-1.2,0.4-2.2,0.5-3.4,1c-1.9,0.7-3.2,2.1-3.2,2.4c-0.9,3.8-2.3,3.7-2.3,3.7h-13.3
				c-0.6-0.3,0.4-3,0.9-3.5c1.3-1.2,5-0.6,6.4-4.5c0.8-2.2,4.6-9,4.6-9l0,0c0.1-0.1,0.8-0.2,4.7,0.6c2,0.4,2.8-3.6,2.8-3.6
				s0.6,0.1,1.3,0.6c0.6,0.4,1.1,1,1.5,2c0.5,1.4,2.4,3.4,3.8,4.7c0.9,0.8,1.5,1.3,1.5,1.3S915.5,596.8,912.8,598.7z"/>
			<g>
				<path class="st20" d="M901.2,412.2c-11.3,0-15.9-3.9-16.3-4.1l-0.5-6.1c0.1,0.1,15,9.9,38.5,1.2l-0.5,4
					C913.3,410.6,907,412.2,901.2,412.2z"/>
			</g>
			<path class="st19" d="M881.9,371.5L881.9,371.5c-6.2-1.5-13.9,0.5-28.4-5c-4.8-1.8-14.3-8.1-21.6-20.6c8.4,8.5,16,14.2,20.5,16.5
				c4.6,2.3,24.1,2.2,27.1,2.3C882.4,365,881.9,371.5,881.9,371.5z"/>
		</g>
		<g>
			<path class="st21" d="M868.9,238.8c-0.6,5.1-1.8,10-3.5,14.4c-6.2,16.4-18.8,27.2-31.8,25.6c-16.5-2-27.5-23.2-24.5-47.3
				c1.8-14.5,8.2-26.7,16.6-33.8c5.6-4.7,12.1-7,18.6-6.2C860.9,193.5,871.9,214.7,868.9,238.8z"/>
			<path class="st20" d="M868.9,238.8c-0.6,5.1-1.8,10-3.5,14.4c-5.6,4.7-12.1,7-18.6,6.2c-16.5-2-27.5-23.2-24.5-47.3
				c0.6-5.1,1.8-10,3.5-14.4c5.6-4.7,12.1-7,18.6-6.2C860.9,193.5,871.9,214.7,868.9,238.8z"/>
			<g>
				<path class="st20" d="M825.3,433c-0.5,5.8-5.7,10.1-11.5,9.4l-1.3-0.2c-5.9-0.7-9.9-6.2-8.9-12l20.1-118.3
					c0-0.2,0.1-0.4,0.1-0.5v-0.1l5.9-34.9l8.5,0.5l-0.8,10.1l0,0L825.3,433z"/>
			</g>
			<path class="st21" d="M837.4,286.9L837.4,286.9L837.4,286.9c0,0-9.5,0.6-13.6,24.3l5.9-34.9l8.5,0.5L837.4,286.9z"/>
		</g>
		<path class="st16" d="M820.4,316.7c0,0,6.5-4,7.8-1.8c1.3,2.3-4.7,12.2-7,10.5C819,323.7,818.5,318.1,820.4,316.7z"/>
	</g>
	<g>
		<path class="st22" d="M112.2,528.5c1.1-7.4,3.3-14.4,6.5-20.8c1.6-3.2,5.5-4.4,8.6-2.7l46.7,25.2c1.5,0.8,3.2-0.5,2.9-2.1l-9-50.8
			c-0.7-4,2.1-7.7,6.1-8.2c6-0.6,12.2-0.5,18.5,0.5c38,6,63.9,41.3,58.3,79.4c-5.6,38.3-41.2,64.7-79.5,59.1
			C133.1,602.4,106.6,566.8,112.2,528.5z"/>
		<path class="st23" d="M231.9,567.6c1.6,0.9,3.8,0.8,4.8-0.3c5-5.3,7.1-11.7,8.2-18.7c0.9-5.8,1.3-11.3-0.8-16.8
			c-0.8-2.1-4-3.5-6.8-2.9l-47.6,9.2c-2.6,0.5-3,2.9-0.8,4.2L231.9,567.6z"/>
		<path class="st23" d="M236.7,524.1c1.8-0.4,3.3-2,3.4-3.4c0.4-6.8-2.1-13-5.7-18.3c-3-4.4-6.2-7.7-11.2-9.9
			c-1.9-0.8-5.1,0.4-6.9,2.6L186.9,533c-1.6,2.1-0.4,4,2.1,3.3L236.7,524.1z"/>
		<path class="st23" d="M209.1,488.8c0.9-1.6,0.8-3.8-0.2-4.8c-4.7-4.9-10.9-7.3-17.2-8.3c-5.2-0.8-9.9-0.7-14.9,1.4
			c-1.9,0.8-3.2,4-2.8,6.8l7.7,47.3c0.4,2.6,2.6,3,3.8,0.7L209.1,488.8z"/>
		<path class="st23" d="M229,571.2c1.5,1,2.4,3,1.9,4.4c-2.2,6.6-6.8,11.4-12.1,15.2c-4.5,3.2-8.8,5.5-14.4,5.9
			c-2.2,0.2-4.7-2.1-5.6-4.8l-13.9-46c-0.8-2.5,1.1-3.9,3.2-2.5L229,571.2z"/>
		<path class="st23" d="M127.2,552.2c-1.8,0.4-3.9-0.3-4.5-1.7c-3.2-6.5-3.5-13.3-2.5-20.2c0.8-5.8,2.1-11.2,5.7-15.9
			c1.4-1.8,4.8-2.2,7.3-0.9l42.9,22.5c2.3,1.2,2.1,3.7-0.5,4.3L127.2,552.2z"/>
		<path class="st23" d="M127.1,554.9c-1.8,0.5-3.3,2.1-3.3,3.5c-0.1,6.9,2.7,13,6.5,18.3c3.2,4.4,6.5,8.1,11.7,10.3
			c2,0.8,5.1-0.4,6.8-2.7l28.1-39c1.5-2.1,0.3-4-2.2-3.4L127.1,554.9z"/>
		<path class="st23" d="M155.7,588.4c-0.9,1.6-0.7,3.8,0.3,4.8c4.9,4.9,11.2,7.1,17.7,8c5.4,0.8,10.4,0.9,15.5-1.3
			c2-0.8,3.3-4,2.8-6.8l-8.6-47.3c-0.5-2.6-2.7-3-4-0.7L155.7,588.4z"/>
	</g>
	<g>
		<path class="st22" d="M683.3,484.2c-2-0.6-4.1,0.7-4.5,2.8c-11,51.5,20.3,103.3,71.9,117.4c51.7,14.1,104.9-14.7,121.6-64.6
			c0.7-2-0.5-4.1-2.5-4.7L683.3,484.2z"/>
		<g>
			<path class="st23" d="M727.9,576.8c-1.6,2.1-1.7,5.2-0.4,6.8c6.5,7.8,15.2,11.8,24.7,14.5c7.9,2.2,15.6,3.6,23.6,1.6
				c3.1-0.8,5.5-4.9,5.2-9l-5.1-67.8c-0.3-3.7-3.6-4.7-5.8-1.8L727.9,576.8z"/>
			<path class="st23" d="M784.6,592.6c0.2,2.5,2.1,5,4,5.4c9.3,2,18.5-0.1,26.6-3.9c6.7-3.2,12.1-6.9,16.2-13.4
				c1.6-2.5,0.6-7.2-2.1-10.1l-46.1-49c-2.5-2.7-5.4-1.4-5.1,2.2L784.6,592.6z"/>
			<path class="st23" d="M724.4,575.5c-1.6,2-4.5,3-6.4,2.2c-9-3.7-15.2-10.7-20-18.7c-3.9-6.6-6.8-13-6.7-20.8c0-3,3.4-6.4,7.3-7.3
				l66-14.5c3.6-0.8,5.3,1.9,3.1,4.8L724.4,575.5z"/>
			<path class="st23" d="M833.2,570.3c1.8,1.8,4.8,2.8,6.5,1.9c7.5-4.1,12.4-7.9,17.4-14.8c5.2-7.2,8.2-12.2,5.2-18.9
				c-2.8-6.4-74.6-21.7-74.6-21.7c-3.6-0.6-5,2-2.5,4.5L833.2,570.3z"/>
			<path class="st23" d="M694.4,529.1c-2.5,0.5-5.6-0.3-6.4-2.1c-4-8.5-5.8-16.3-4.7-24.7c0.9-7-0.6-15.5,15.3-11.1l63.5,19
				c3.3,1.5,3.1,4.4-0.4,5.2L694.4,529.1z"/>
		</g>
	</g>
	<g>
		<path class="st21" d="M386.8,387.3c0,0,0.4-7.5-9.1-8.9c0,0-5.4-1.4-10.7,3.9c-7,7.1-2.9,22.3-5.2,25.3c-2.3,3-19.6-3.3-16.6,13.5
			c1.7,9.7,15.5,25.6,33.3,27.1c0,0,14.7-2.2,6.6-14.8c-2.2-3.4-7.3-7.6-2.8-13.7C383.2,418.5,386.8,387.3,386.8,387.3z"/>
		<path class="st20" d="M298.4,494.6c0.1,0.1,0.1,0.3,0.2,0.4c1.8,3.1,5.9,10.8,10.5,19.2c2.2,4,4.4,8.1,6.6,12
			c3.7,6.7,7,12.7,9,15.9s3.5,5.5,4.1,6.4l0,0c0.2,0.3,0.2,0.6,0.2,0.9c-0.2,2.8-0.1,5.7,0.1,8.5c2.7,27.4,21.2,42,21.2,42l5.5,0.8
			c0,0-7.8-28.8-10-45c-0.4-2.8-0.6-5-0.4-6.4c0.4-4.2-0.3-10.5-1.8-17.6c-2.5-12.7-7.2-28.3-11.2-40.7c-0.3-0.8-8-28.7-8-28.7
			c-6.5,5.7-30.1,8-30.1,8S290.3,480.1,298.4,494.6z"/>
		<path class="st16" d="M373.6,430.7c0,0-11.2-0.3-11.8,9.5c-0.6,9.9,11.4,48,13.9,51.5c4.5,6.3,23.3,23,23.3,23l4.9-2.8
			c0,0-16.3-28.2-19.2-30.7C380.4,477.1,378.9,433.7,373.6,430.7z"/>
		<path class="st24" d="M367.3,607.8h-22.9c0,0-0.5-3.5,0.6-6.1c1.1-2.5,2.8-2.6,0.2-6.6c1.5,1.5,6.1,2.1,9.4,1.7
			c0.4,0.7,2.6,5.1,4,6C360.2,603.8,366.8,603.4,367.3,607.8z"/>
		<path class="st21" d="M298.4,494.6c0.1,0.1,0.1,0.3,0.2,0.4c1.8,3.1,11.6,21.2,16.1,29.6c-5.3-21.7-1.6-43.5-1.6-43.5L298.4,494.6
			z"/>
		<path class="st21" d="M383.7,385.9c0.1-0.6-13.1,6-13.7,6.7c-6.2,6.9-4.4,15.9-0.9,15.9c2.3,0.1,1.8,3.8,1.8,3.8l25.4-10.7
			C396.2,401.6,393.2,383.8,383.7,385.9z"/>
		<path class="st11" d="M375.1,429.6c0,0,3.4,3.5,3.4,14c0,0-4.7,7.3-16.7,9.2C361.8,452.7,372.2,429.6,375.1,429.6z"/>
		<path class="st20" d="M316.3,472.1l0.1-4.3c-8.5,1.1-29.4-10.2-29.4-10.2s-8.9,5.9-10.1,22.9c-0.6,8.3-4.4,43.3-4.8,53.7
			c-0.2,3.8-0.2,6.5-0.2,7.6l0,0c0,0.3-0.2,0.6-0.4,0.9c-1.8,2.2-3.3,4.6-4.6,7.1c-13,24.2-6.3,56.7-6.3,56.7l3-0.8
			c0,0,11.1-33.6,18.3-48.4c1.2-2.5,2.3-4.4,3.3-5.6c2.7-3.3,5.6-8.9,8.4-15.6C298.8,523.4,316.3,472.1,316.3,472.1z"/>
		<path class="st24" d="M278.8,607.8h-22.9c0,0-0.5-3.5,0.6-6.1c1.1-2.5,2.9-3.7,2.5-6.8c1.5,1.5,3.8,3.2,7.1,2.7
			c0.4,0.7,2.6,4.2,4,5.1C271.7,603.8,278.3,603.4,278.8,607.8z"/>
		<path class="st9" d="M360.3,457.6c-3.1,0.5,0.5,3-3.7,3.4c-6,0.7-12.2,1.1-15.5,2.4c-1.2,0.5-3.3,2.6-3.8,3.2
			c-3.1,3.7-7,11.2-7,11.2c-39.9-1.8-43.3-20.3-43.3-20.3c25.9-25.1,49.7-39.9,67.8-41.9c3.1-0.3,7,1.6,9.8,2.9
			c6.4,2.8,10.5,11,10.5,11S371.9,455.6,360.3,457.6z"/>
		<path class="st11" d="M356.5,461.1c-6,0.7-12.2,1.1-15.5,2.4c-1.3-19.9,8.1-34.8,8.1-34.8S355.2,453.5,356.5,461.1z"/>
		<path class="st16" d="M364.6,418.6c0,0,4.2,15.7,10.5,11c-0.2-0.8,0.9-3,2.2-5.2c1.7-2.9,3.6-5.8,3.6-5.8l-8.6-7.5l-0.5-0.4
			C369.3,415.2,366.7,417,364.6,418.6z"/>
		<path class="st25" d="M381,418.6c0,0-2,2.9-3.6,5.8c-5.3-3.3-5.3-9.9-4.9-13.3L381,418.6z"/>
		<path class="st16" d="M381.3,422.3c0,0-12.9-7.2-8.3-15.2s6-14.3,14.5-10c8.4,4.3,8.3,8.2,7.4,11.3
			C393.9,411.4,384.7,424,381.3,422.3z"/>
		<path class="st21" d="M397,403.7c-0.6-3.5-2.4-3.9-3.6-3.6c-4.8-7.9-12.6-4.8-12.6-4.8c-4.2,5.2-10.2,6.1-10.2,6.1
			s1.5,2.8,7.7,4.5c1.9,0.5,4,0.2,6.1-0.5c-4.3,2.4-8.8,3.3-8.8,3.3c8.1,0.7,15.5-4.4,16.3-5.2c1.3,0.7,2.2,1.1,2.2,2.9
			c0.1,2.7-1.4,5.3-2.6,7.5C391.6,413.9,397.9,409,397,403.7z"/>
		<g>
			<g>
				
					<ellipse transform="matrix(0.4033 -0.9151 0.9151 0.4033 -240.0781 742.571)" class="st21" cx="449.3" cy="555.4" rx="27.4" ry="83.2"/>
				
					<ellipse transform="matrix(0.4033 -0.9151 0.9151 0.4033 -231.4816 741.1794)" class="st21" cx="452.6" cy="548.1" rx="27.4" ry="83.2"/>
				<path class="st21" d="M376.9,513.5c0,0-4.4,5.9-4.2,9.5c0.2,3.6,152.7,66,152.7,66s2.6-5.1,3.2-7.3
					C529.3,579.4,376.9,513.5,376.9,513.5z"/>
			</g>
			
				<ellipse transform="matrix(0.4033 -0.9151 0.9151 0.4033 -223.31 739.8146)" class="st12" cx="455.6" cy="541.1" rx="27.2" ry="78"/>
			
				<ellipse transform="matrix(0.4033 -0.9151 0.9151 0.4033 -212.0839 737.9116)" class="st21" cx="459.8" cy="531.6" rx="27.4" ry="83.2"/>
			<path class="st20" d="M387.4,489.7c0,0-4.4,5.9-4.2,9.5c0.2,3.6,152.7,66,152.7,66s2.6-5.1,3.2-7.3
				C539.8,555.7,387.4,489.7,387.4,489.7z"/>
			
				<ellipse transform="matrix(0.4033 -0.9151 0.9151 0.4033 -203.486 736.5186)" class="st20" cx="463" cy="524.3" rx="27.4" ry="83.2"/>
			<path class="st26" d="M491.1,543.8c0-0.1,0-0.2,0-0.2c-0.2-0.6-0.9-1-1.5-0.8l-9,2.9c-0.6,0.2-1,0.9-0.8,1.5s0.9,1,1.5,0.8l9-2.9
				C490.8,544.8,491.2,544.3,491.1,543.8z"/>
			<path class="st26" d="M471.6,516.1c0-0.1,0-0.2,0-0.2c-0.2-0.6-0.9-1-1.5-0.8l-9,2.9c-0.6,0.2-1,0.9-0.8,1.5s0.9,1,1.5,0.8l9-2.9
				C471.3,517.2,471.7,516.7,471.6,516.1z"/>
			<path class="st26" d="M406.5,502.2c-0.1,0-0.2,0.1-0.2,0.1c-0.6,0.3-0.7,1.1-0.4,1.6l5,8.1c0.3,0.6,1.1,0.7,1.6,0.4
				c0.6-0.3,0.7-1.1,0.4-1.6l-5-8.1C407.6,502.2,407,502,406.5,502.2z"/>
			<path class="st27" d="M433,500.4c0-0.1,0-0.2-0.1-0.2c-0.2-0.6-0.9-0.9-1.5-0.7l-8.9,3.4c-0.6,0.2-0.9,0.9-0.7,1.5
				c0.2,0.6,0.9,0.9,1.5,0.7l8.9-3.4C432.8,501.5,433.1,500.9,433,500.4z"/>
			<path class="st27" d="M503.7,534.9c-0.1,0-0.1,0.1-0.2,0.2c-0.5,0.5-0.5,1.2,0,1.7l6.6,6.8c0.5,0.5,1.2,0.5,1.7,0s0.5-1.2,0-1.7
				l-6.6-6.8C504.8,534.7,504.2,534.6,503.7,534.9z"/>
			<path class="st27" d="M437.7,524.6c-0.1,0-0.1,0.1-0.2,0.2c-0.5,0.5-0.5,1.2,0,1.7l6.6,6.8c0.5,0.5,1.2,0.5,1.7,0s0.5-1.2,0-1.7
				l-6.6-6.8C438.8,524.4,438.2,524.4,437.7,524.6z"/>
		</g>
		<path class="st16" d="M361.7,425.3c0,0-15.1-0.8-17.8,8.7c-2.7,9.5,5,47.4,6.7,51.3c3,7.1,17.8,27.5,17.8,27.5l5.4-1.7
			c0,0-9.9-31.1-12.1-34.2C358.3,472.1,366.3,429.4,361.7,425.3z"/>
		<path class="st11" d="M340.9,446.7c0,0.2,14.3,2.6,23.3-1.9c0,0,7.5-23.4-3.2-22.3c-10.7,1.1-17,4.5-17.3,9.6
			C343.4,437.2,340.9,446.7,340.9,446.7z"/>
		<path class="st16" d="M373.9,511.1c0,0,0.7,1.8,1.7,3s3.6,4.9,3.6,6.6c0,0-0.1,0.8-0.8,0.6c-0.6-0.1-2.8-2.3-4-2.2
			c0,0-1,2.9-0.6,4c1.1,3-0.5,6.8-0.9,7.6c-0.4,0.9-3.5-5.7-4.2-8.1c-0.5-1.6-0.8-5.2-0.6-8.2c0.1-1.7-1.6-4.5-1.6-4.5L373.9,511.1z
			"/>
	</g>
	<path class="st28" d="M597.5,257.7c0,0-37.4-30.4-59.1-28c-21.7,2.4,16.4,17.7,26.7,25.1C575.4,262.2,609,268.5,597.5,257.7z"/>
</g>
</svg>
