<?xml version="1.0" encoding="utf-8"?>
<!-- Generator: Adobe Illustrator 21.0.0, SVG Export Plug-In . SVG Version: 6.00 Build 0)  -->
<svg version="1.1" id="Layer_1" xmlns="http://www.w3.org/2000/svg" xmlns:xlink="http://www.w3.org/1999/xlink" x="0px" y="0px"
	 viewBox="0 0 512 512" style="enable-background:new 0 0 512 512;" xml:space="preserve">
<style type="text/css">
	.st0{fill:#FFFFFF;}
</style>
<g>
	<g>
		<path class="st0" d="M256,297.1c-9.1,0-17.7-3.5-24.1-10L81.1,136.3v236.8c0,11.2,9.1,20.3,20.3,20.3h309.2
			c11.2,0,20.3-9.1,20.3-20.3V136.3L280.1,287.1C273.7,293.5,265.1,297.1,256,297.1z"/>
		<path class="st0" d="M81.1,118.6h-0.5l0.5,0.5l159.4,159.4c4.3,4.3,9.9,6.4,15.5,6.4c5.6,0,11.2-2.1,15.5-6.4l159.4-159.4l0.5-0.5
			h-0.5L81.1,118.6L81.1,118.6z"/>
	</g>
</g>
</svg>
