<?xml version="1.0" encoding="utf-8"?>
<!-- Generator: Adobe Illustrator 21.0.0, SVG Export Plug-In . SVG Version: 6.00 Build 0)  -->
<svg version="1.1" id="Layer_1" xmlns="http://www.w3.org/2000/svg" xmlns:xlink="http://www.w3.org/1999/xlink" x="0px" y="0px"
	 viewBox="0 0 1080 1080" style="enable-background:new 0 0 1080 1080;" xml:space="preserve">
<style type="text/css">
	.st0{fill:#939598;}
	.st1{fill:#279599;}
</style>
<g>
	<g>
		<g>
			<path class="st1" d="M869.1,467V365.3c0-34.5-26.8-62.6-60.6-65.3L714,134.9c-8.8-15.3-22.9-26.2-39.8-30.7
				c-16.8-4.5-34.5-2.1-49.5,6.6l-324,188.6h-56.9c-36.3,0-65.8,29.5-65.8,65.8v395c0,36.3,29.5,65.8,65.8,65.8h559.5
				c36.3,0,65.8-29.5,65.8-65.8V658.5c19.1-6.8,32.9-24.9,32.9-46.3v-98.7C902.1,491.9,888.3,473.9,869.1,467z M770.3,299.4H626.9
				l107.6-62.6L770.3,299.4z M718.1,208.2l-156.6,91.2h-65l205.4-119.6L718.1,208.2z M641.2,139.3c7.4-4.4,16.1-5.5,24.4-3.3
				c8.4,2.2,15.4,7.7,19.8,15.3v0.1L431,299.5h-65L641.2,139.3z M836.2,760.2c0,18.1-14.8,32.9-32.9,32.9H243.8
				c-18.1,0-32.9-14.8-32.9-32.9v-395c0-18.1,14.8-32.9,32.9-32.9h559.5c18.1,0,32.9,14.8,32.9,32.9V464h-98.7
				c-54.5,0-98.7,44.3-98.7,98.7c0,54.5,44.3,98.7,98.7,98.7h98.7V760.2L836.2,760.2z M869.1,612.1c0,9.1-7.4,16.5-16.5,16.5H737.4
				c-36.3,0-65.8-29.5-65.8-65.8s29.5-65.8,65.8-65.8h115.2c9.1,0,16.5,7.4,16.5,16.5V612.1L869.1,612.1z"/>
			<path class="st1" d="M737.5,529.8c-18.1,0-32.9,14.8-32.9,32.9c0,18.1,14.8,32.9,32.9,32.9s32.9-14.8,32.9-32.9
				S755.6,529.8,737.5,529.8z"/>
		</g>
	</g>
</g>
</svg>
