<?xml version="1.0" encoding="utf-8"?>
<!-- Generator: Adobe Illustrator 21.0.0, SVG Export Plug-In . SVG Version: 6.00 Build 0)  -->
<svg version="1.1" id="Layer_1" xmlns="http://www.w3.org/2000/svg" xmlns:xlink="http://www.w3.org/1999/xlink" x="0px" y="0px"
	 viewBox="0 0 588.5 355.5" style="enable-background:new 0 0 588.5 355.5;" xml:space="preserve">
<style type="text/css">
	.st0{fill:#EBF3FA;}
	.st1{opacity:0.5;fill:#76CCCD;}
	.st2{opacity:0.3;fill:#76CCCD;}
	.st3{fill:#62BC54;}
	.st4{fill:#FF5555;}
	.st5{fill:#279599;}
	.st6{opacity:0.44;fill:#279599;}
	.st7{opacity:0.21;fill:#F74343;}
	.st8{opacity:0.44;}
	.st9{fill:#590C0C;}
	.st10{fill:#60CFE2;}
	.st11{fill:#F94141;}
	.st12{fill:#1A767F;}
	.st13{opacity:0.19;fill:#FF5555;}
	.st14{opacity:0.52;fill:#591717;}
	.st15{opacity:0.58;fill:#76CCCD;}
	.st16{opacity:0.56;}
	.st17{fill:#822929;}
	.st18{fill:#FCB033;}
	.st19{fill:#FFDC8F;}
	.st20{fill:#E82525;}
	.st21{fill:#300000;}
	.st22{opacity:8.000000e-02;fill:#DC492F;}
	.st23{opacity:0.29;fill:#DC492F;}
	.st24{opacity:0.38;}
	.st25{fill:#EF3535;}
	.st26{opacity:0.4;}
	.st27{fill:#F44040;}
	.st28{opacity:0.3;fill:#F74343;}
	.st29{opacity:0.21;fill:#EF3A3A;}
	.st30{opacity:0.35;}
	.st31{fill:#EF3737;}
	.st32{opacity:0.33;}
	.st33{fill:#ED2E2E;}
	.st34{fill:#D62727;}
	.st35{fill:#FF7676;}
</style>
<g>
	<g>
		<path class="st22" d="M30.1,339.4l0-0.1c0,0-0.1-0.1-0.1-0.2c-0.2-0.4-77.8-114.5,42.9-194c47.2-31.1-3-51.6,34.6-86.2
			c43.1-39.8,90.2,4.2,138.2-13.8c8.5-3.2,17-8.3,25.5-16.2c20-18.5,47.3-26.7,74.8-28.5c53.6-3.6,113.9,16.7,145.1,46.3
			c6.3,6,34.8,36.8,12.3,79.2c-14.2,26.8,45.2,52.3,66.4,82.9c35.8,51.8,24.2,92.4,12.4,114c-1.5,2.8-3,5.2-4.4,7.3
			c-4.2,6.2-7.5,9.7-7.7,9.9L30.1,339.4z"/>
		<path class="st23" d="M515.7,228.4c-1.2-22.6-38.7-23.6-38.7-23.6s-23.9,29-31.2,28.4c-7.3-0.6,9.5-30.6,9.5-30.6
			c-13.5-4.3-48,6-48,6s-7.1,44.1-14,41.7c-6.9-2.4,8.2-38.7,8.2-38.7c-14.2,1.2-30,14.1-30,14.1c-21,22.1,8.4,47.9,8.4,47.9
			s-0.2,15.9,3.4,14.7c0,0-0.3-0.7-0.4-1.8c0.1,0.6,0.3,1.2,0.4,1.8c3.4,14.7,34.1,23.5,52.2,23.7c18.1,0.1,11.6-6.4,3.9-16.3
			c-7.7-9.9-27.7-12-32.8-16.4c-5.1-4.3,4-5.7,15.4-2.3c11.4,3.4,14.7,16.2,33,21.9c18.3,5.8,40.1-26.4,40.1-26.4
			c-13.8,1.3-35.4-10.8-35.3-15.4c0.1-4.6,34.2,3.1,39.9,2.9C505.3,259.7,516.9,251,515.7,228.4z"/>
		<path class="st23" d="M98.8,216.4c1.1-20.7,35.4-21.6,35.4-21.6s21.8,26.5,28.5,25.9c6.7-0.6-8.7-28-8.7-28
			c12.4-3.9,43.9,5.5,43.9,5.5s6.5,40.3,12.8,38.1c6.3-2.2-7.5-35.4-7.5-35.4c13,1.1,27.4,12.9,27.4,12.9
			c19.2,20.2-7.7,43.8-7.7,43.8s0.2,14.5-3.1,13.4c0,0,0.3-0.6,0.4-1.7c-0.1,0.5-0.3,1.1-0.4,1.7c-3.1,13.4-31.2,21.5-47.8,21.7
			c-16.6,0.1-3.7-3.4-3.6-14.9c0.3-30.4,14.8-44,30-15c2.8,5.4-3.7-5.2-14.1-2.1c-10.4,3.1-13.5,14.8-30.2,20.1
			c-16.8,5.3-36.6-24.1-36.6-24.1c12.6,1.2,32.4-9.9,32.3-14.1c-0.1-4.2-31.3,2.8-36.5,2.7C108.3,245,97.7,237.1,98.8,216.4z"/>
		<path class="st23" d="M388.7,120.2c-5.4-12.3-26.4-5-26.4-5s-7.2,21-11.4,22.2c-4.2,1.2-1.1-18.9-1.1-18.9
			c-8.4,0.4-25.4,13.3-25.4,13.3s5.3,25.9,0.9,26c-4.3,0.1-3.5-23.2-3.5-23.2c-7.6,3.6-13.7,14.1-13.7,14.1
			c-7,16.6,14.6,24.8,14.6,24.8s3.2,8.8,4.9,7.4c0,0-0.3-0.3-0.6-0.9c0.2,0.3,0.4,0.6,0.6,0.9c4.9,7.4,23.8,6,33.9,2.3
			c10.1-3.7,5.1-5.9-1.2-9.9c-6.3-3.9-17.9-0.9-21.6-2.2c-3.7-1.3,1-4,8-4.5c7-0.5,11.5,5.9,22.9,5.3c11.4-0.6,16.7-23,16.7-23
			c-7.4,3.6-21.9,1.4-22.8-1.2c-0.9-2.6,19.6-5.4,22.7-6.7C389.4,139.7,394.1,132.5,388.7,120.2z"/>
		<g>
			<path class="st3" d="M210.9,136c0,0-28.7,1.9-29.1-9.7C181.3,114.7,210.9,136,210.9,136S210.9,134.2,210.9,136z"/>
			<path class="st3" d="M194.9,114.6c6.5-7.8,16.1,21.4,16.1,21.4S188.4,122.3,194.9,114.6z"/>
		</g>
		<g>
			<path class="st3" d="M432.4,141.5c0,0,37.1-7.1,33.9-22C463,104.6,432.4,141.5,432.4,141.5S431.9,139.2,432.4,141.5z"/>
			<path class="st3" d="M445.8,108.9c-10.8-7.7-13.4,32.6-13.4,32.6S456.6,116.6,445.8,108.9z"/>
		</g>
	</g>
	<g>
		<g>
			<g>
				<g>
					<path class="st4" d="M373.4,225.2c2.9-1.8,6-3.5,9.2-4.8c-0.6,0.2-1.1,0.4-1.7,0.7c2.6-1,5.3-1.8,8.1-2.2
						c-0.6,0.1-1.2,0.2-1.9,0.3c1.9-0.2,3.7-0.3,5.6-0.1c-0.6-0.1-1.2-0.1-1.9-0.2c1.6,0.2,3.1,0.5,4.6,1.1
						c-0.6-0.2-1.1-0.4-1.7-0.6c1.9,0.7,3.6,1.7,5.2,2.8c-0.5-0.3-1-0.7-1.4-1c1.5,1.1,3,2.3,4.2,3.6c-0.4-0.4-0.7-0.9-1.1-1.3
						c1.7,2.1,3.1,4.3,4.3,6.7c-0.2-0.5-0.5-1-0.7-1.5c1.5,3,2.5,6.3,3,9.6c-0.1-0.6-0.2-1.1-0.3-1.7c0.6,4,0.7,8,0.1,12
						c0.1-0.6,0.2-1.1,0.2-1.7c-0.7,4.9-2.1,9.8-4.1,14.4c0.2-0.5,0.5-1,0.7-1.5c-2.1,4.6-4.7,9-8,13c0.4-0.4,0.7-0.9,1.1-1.3
						c-2.6,3.2-5.7,6.1-9.1,8.6c0.5-0.3,0.9-0.7,1.4-1c-2.9,2.1-6,3.9-9.3,5.2c0.6-0.2,1.1-0.4,1.7-0.7c-2.7,1.1-5.5,1.9-8.4,2.3
						c0.6-0.1,1.2-0.2,1.9-0.3c-2.4,0.3-4.8,0.4-7.2,0.1c0.6,0.1,1.2,0.1,1.9,0.2c-2.2-0.2-4.4-0.7-6.5-1.5c-1.6-0.6-4,0-5.4,0.7
						c-1.4,0.8-2.8,2.3-3.2,3.9c-0.4,1.6-0.3,3.5,0.8,4.9c0.4,0.4,0.7,0.9,1.1,1.3c0.9,0.8,1.9,1.3,3.1,1.6
						c10.9,3.8,23.3,1.3,33-4.3c9.5-5.5,16.9-13.8,21.7-23c2.4-4.6,4.4-9.5,5.6-14.6c1.2-4.9,1.7-10.1,1.4-15.1
						c-0.4-5-1.4-9.9-3.6-14.5c-1.2-2.5-2.5-5-4.2-7.3c-2.2-2.9-4.8-5.1-7.9-7.1c-5.2-3.5-11.9-5.2-18.4-4.5c-3.2,0.4-6.3,1-9.4,2.1
						c-3,1.1-5.9,2.4-8.7,3.9c-1.1,0.6-2.2,1.2-3.2,1.9c-1.5,0.9-2.7,2.2-3.2,3.9c-0.4,1.5-0.2,3.6,0.8,4.9c1,1.4,2.4,2.5,4.2,2.9
						C369.7,226.3,371.8,226.2,373.4,225.2L373.4,225.2z"/>
				</g>
				<g class="st24">
					<path class="st25" d="M373.4,225.2c2.9-1.8,6-3.5,9.2-4.8c-0.6,0.2-1.1,0.4-1.7,0.7c2.6-1,5.3-1.8,8.1-2.2
						c-0.6,0.1-1.2,0.2-1.9,0.3c1.9-0.2,3.7-0.3,5.6-0.1c-0.6-0.1-1.2-0.1-1.9-0.2c1.6,0.2,3.1,0.5,4.6,1.1
						c-0.6-0.2-1.1-0.4-1.7-0.6c1.9,0.7,3.6,1.7,5.2,2.8c-0.5-0.3-1-0.7-1.4-1c1.5,1.1,3,2.3,4.2,3.6c-0.4-0.4-0.7-0.9-1.1-1.3
						c1.7,2.1,3.1,4.3,4.3,6.7c-0.2-0.5-0.5-1-0.7-1.5c1.5,3,2.5,6.3,3,9.6c-0.1-0.6-0.2-1.1-0.3-1.7c0.6,4,0.7,8,0.1,12
						c0.1-0.6,0.2-1.1,0.2-1.7c-0.7,4.9-2.1,9.8-4.1,14.4c0.2-0.5,0.5-1,0.7-1.5c-2.1,4.6-4.7,9-8,13c0.4-0.4,0.7-0.9,1.1-1.3
						c-2.6,3.2-5.7,6.1-9.1,8.6c0.5-0.3,0.9-0.7,1.4-1c-2.9,2.1-6,3.9-9.3,5.2c0.6-0.2,1.1-0.4,1.7-0.7c-2.7,1.1-5.5,1.9-8.4,2.3
						c0.6-0.1,1.2-0.2,1.9-0.3c-2.4,0.3-4.8,0.4-7.2,0.1c0.6,0.1,1.2,0.1,1.9,0.2c-2.2-0.2-4.4-0.7-6.5-1.5c-1.6-0.6-4,0-5.4,0.7
						c-1.4,0.8-2.8,2.3-3.2,3.9c-0.4,1.6-0.3,3.5,0.8,4.9c0.4,0.4,0.7,0.9,1.1,1.3c0.9,0.8,1.9,1.3,3.1,1.6
						c10.9,3.8,23.3,1.3,33-4.3c9.5-5.5,16.9-13.8,21.7-23c2.4-4.6,4.4-9.5,5.6-14.6c1.2-4.9,1.7-10.1,1.4-15.1
						c-0.4-5-1.4-9.9-3.6-14.5c-1.2-2.5-2.5-5-4.2-7.3c-2.2-2.9-4.8-5.1-7.9-7.1c-5.2-3.5-11.9-5.2-18.4-4.5c-3.2,0.4-6.3,1-9.4,2.1
						c-3,1.1-5.9,2.4-8.7,3.9c-1.1,0.6-2.2,1.2-3.2,1.9c-1.5,0.9-2.7,2.2-3.2,3.9c-0.4,1.5-0.2,3.6,0.8,4.9c1,1.4,2.4,2.5,4.2,2.9
						C369.7,226.3,371.8,226.2,373.4,225.2L373.4,225.2z"/>
				</g>
				<g class="st26">
					<path class="st27" d="M367.9,225.9c1.8,0.3,3.8,0.2,5.4-0.7c1.6-1,3.3-2,5-2.8l-0.2-14c0,0-0.1,0-0.1,0c-3,1.1-5.9,2.4-8.7,3.9
						c-1.1,0.6-2.2,1.2-3.2,1.9c-1.5,0.9-2.7,2.2-3.2,3.9c-0.4,1.5-0.2,3.6,0.8,4.9C364.7,224.4,366.1,225.6,367.9,225.9z"/>
					<path class="st27" d="M379.3,284.2c-1.6,0.5-3.3,0.9-5,1.2c-1.8,0.2-3.6,0.2-5.5,0.1c-1.9-0.3-3.7-0.7-5.5-1.3
						c-1.6-0.6-4,0-5.4,0.7c-1.4,0.8-2.8,2.3-3.2,3.9c-0.4,1.6-0.3,3.5,0.8,4.9c0.4,0.4,0.7,0.9,1.1,1.3c0.9,0.8,1.9,1.3,3.1,1.6
						c6.4,2.2,13.2,2.3,19.7,0.9L379.3,284.2z"/>
				</g>
				<path class="st4" d="M421.4,239.7c-0.4-5-1.4-9.9-3.6-14.5c-0.3-0.6-0.6-1.3-0.9-1.9c-1.8-3.9-4.6-7.3-8-10.2
					c-0.6-0.5-1.3-1.1-2-1.6c-1.4-1-2.8-1.9-4.3-2.6c-0.8-0.4-1.6-0.7-2.4-1c-4.7-2-10.2-2.3-15.3-1.2c-0.8,0.1-1.5,0.2-2.2,0.3
					c-0.7,0.1-1.4,0.3-2.1,0.7c-0.2,0.1-0.3,0.2-0.5,0.3c-0.3,0.2-0.6,0.4-0.8,0.7c-0.1,0.1-0.1,0.3-0.1,0.5c-0.1,0.6-0.1,1.2,0,1.8
					c0,0.4,0,0.9,0.1,1.3c0,0.4,0.1,0.9,0.2,1.3c0,0.4,0.1,0.8,0.3,1.1c0.2,0.3,0.5,0.5,0.9,0.7c0.4,0.2,0.8,0.3,1.3,0.3
					c1.3-0.4,2.6-0.8,3.9-1c1.3-0.2,2.6-0.4,4-0.4c1.3,0,2.6,0,3.9,0.2c1.3,0.2,2.6,0.5,3.8,0.8c3.7,1.2,7,3.3,9.3,6.5
					c0.5,0.6,1.1,1.3,1.5,2c2.4,3.4,3.9,7.5,4.7,11.4c0.2,0.8,0.4,1.6,0.6,2.4c0.3,1.6,0.5,3.2,0.7,4.8c0.3,3.9-0.2,8-1.1,11.8
					c-0.9,3.9-2.5,7.8-4.4,11.4c-2.3,4.3-5.3,8.4-8.9,11.8c-0.6,0.6-1.2,1.1-1.9,1.7c-5,4.3-11.3,7.1-17.6,9.7
					c-1.4,0.5-0.4,3-0.4,4.6c0,1.1,0,2.1,0,2.8s0,1.2,0,1.2c4.5-1,8.9-2.8,12.8-5.1c9.5-5.5,16.9-13.8,21.7-23
					c2.4-4.6,4.4-9.5,5.6-14.6C421.2,249.9,421.8,244.7,421.4,239.7z"/>
			</g>
			<path class="st4" d="M222.9,180.7c-0.1,0.5-0.2,1-0.2,1.5c0,0.2,0,0.4,0,0.6c-0.2,8.6-0.4,17.1-0.6,25.7
				c-0.1,4.6-0.1,9.2-0.2,13.8c-0.4,33.7-0.1,67.1,3.9,101c1.1,8.9,6.8,16.5,15.1,19.5c2.8,1.2,5.8,2.1,8.8,3c3,0.8,6,1.5,8.8,2.3
				c2,0.5,4.1,0.9,6.2,1.3c6.2,1.1,12.4,1.9,18.6,2.4c3.1,0.2,6.3,0.4,9.4,0.5c23.7,0.8,47.5-2.3,69.8-11.5c3.4-1.5,6.2-4,8.7-6.7
				c2.6-3.1,4.5-6.7,5-10.8c0.1-0.7,0.2-1.5,0.3-2.2c0.2-1.2,0.3-4.4,0.4-9c0.4-44.5,1.9-88.9-2.2-133.2
				c-34.2-0.1-68.4,1.2-102.7,1.6c-4.8,0.1-9.5,0.1-14.3,0.2c-9.5,0.1-19.1,0.2-28.6,0.4c-1.7,0-3.1,0.1-4.1,0.1c-0.2,0-0.4,0-0.6,0
				c-0.4-0.2-0.9,0-1.3-0.2C223,180.8,222.9,180.7,222.9,180.7z"/>
			<path class="st28" d="M362.1,173.4c-1.3,0.7-2.6,1.3-3.9,2c-1.3,0.7-2.6,1.4-3.9,2.1c-1.2,0.8-2.5,1.6-3.8,2.3
				c-1.3,0.7-2.6,1.3-3.9,1.9c-2.2,0.9-4.4,1.7-6.7,2.5c-16.1,5.4-33.6,8.6-50.4,5.1c0.4-1,1.1-1.7,2.1-2.1c-1,0.4-1.5,1.4-2.1,2.3
				c15,2.9,30.4,0.2,45.1-3.2c-12.9,5.1-27.2,4.8-40.9,5.1c-1.8,0-4.9,1.9-3.5,3.4c14.2,15.8,36.4,5.4,54.3,5c1.6-0.1,3.3-0.1,4.9,0
				c1.1,0.1,2.2,0.2,3.3,0.4c1.1,0.2,2.1,0.6,3,1.1c1.1,0.6,2,1.4,2.8,2.4c0.8,1,1.3,2.3,1.7,3.9c0.2,1.3,0.3,2.5,0.4,3.8
				c1.6,26.6,1.2,53-0.3,79.6c-0.2,3.8-0.4,7.6-0.7,11.4c-0.3,6.6-2,13.7-5.3,19.6c-1.1,2-2.4,3.8-3.9,5.5
				c-13.2,12.1-33.2,11.2-50.2,12.6c-3.3,0-6.5-0.1-9.8-0.3c-16.2-1-32.1-4.8-46.7-11.9c-1.4-1.1-2.6-2.4-3.7-3.9
				c-1-1.5-1.9-3.1-2.6-4.9c-0.8-2.3-1.6-4.6-2.2-6.9c-0.7-2.3-1.3-4.6-1.8-7c-3.6-16.1-4.6-32.8-6-49.4c-0.2-2.5-0.3-4.9-0.5-7.4
				c-0.6-12.4-0.5-24.7,1.3-36.9c0.5-1.5,1.1-2.9,2-4.3c0.8-1.3,1.8-2.6,3-3.7c4.4-4.4,10.9-2.6,16.6-2.6c1,0.1,2.1,0.1,3.1,0.2
				c4.2,0.2,8.4,0.4,12.5,0.2c2,0,4-0.1,6.1-0.2c4.7-0.1,9.5-0.9,14.1-0.5c-4.3-1.9-9-0.3-13.5-0.8c-2-0.1-3.9-0.2-5.9-0.5
				c-1.6-0.2-3.3-0.4-4.9-0.7c-8.1-1.6-16-4.4-23.2-8.7c-1.3-0.9-2.6-1.8-3.9-2.7s-2.5-2-3.7-3c-0.8-0.7-1.8-1.2-2.8-1.6
				c-1-0.4-2-0.7-3-1.1c-0.4,1.3-0.7,2.7-1,4.1c-0.6,2.9-1,5.7-1.3,8.6c-0.1,1.3-0.3,2.7-0.5,4c-0.1,1.3-0.2,2.7-0.2,4
				c0.1,1.2,0.1,2.4,0.2,3.6c-0.1,4.1-0.1,8.3-0.1,12.4c0,9.5,0,19,0.1,28.4c0,2.4,0,4.7,0,7.1c0,20.4,0.2,40.8,2.6,61.3
				c0.1,1.2,0.2,2.5,0.3,3.7c0.2,2,0.5,4.1,0.9,6.1c0.5,2,1.1,4,1.9,5.9c4.7,12,18.7,14.1,29.7,17.1c1.9,0.5,3.9,0.9,5.8,1.3
				c5.8,1.2,11.7,2.1,17.5,2.7c2.9,0.3,5.9,0.5,8.9,0.7c18.7,0.9,36.8-1.7,55.6-6.3c8.4-2,16.8-4.9,22-11.9c2.3-2.9,4.1-6.3,5.5-9.6
				c0.3-0.9,0.6-1.7,0.9-2.6c0.3-0.9,0.5-1.8,0.7-2.6c0.7-2.7,1.1-5.4,1.4-8.2c1.1-26.7-0.3-53.1,0.8-79.7c0-1.7,0-3.4,0-5.1
				c0-5.7-0.8-11.3-1.3-17.1c-0.4-3.7,0-7.2-0.2-10.8c-0.1-1.2-0.2-2.4-0.4-3.6c-0.5-2.4-0.9-4.8-0.5-7.2c0.7-3.4-0.2-7-3.4-8.5
				c-1.2-0.5-2.4-0.5-3.6-0.3c-2.7,0.8-4.8-0.7-4.8-3.3C362.3,174.8,362.2,174.1,362.1,173.4z"/>
			<path class="st7" d="M289.4,189.5c2.4,0.5,4.8,0.8,7.1,1c-2.4-0.2-4.7-0.6-7.1-1.1C289.5,189.4,289.5,189.4,289.4,189.5z"/>
			<path class="st7" d="M296.6,190.4c10.6,1.1,21.3-0.2,31.6-2.8C317.8,189.9,307.1,191.3,296.6,190.4z"/>
			<path class="st7" d="M291.5,187.2c-1,0.4-1.7,1.2-2.1,2.1c0,0,0.1,0,0.1,0C290,188.5,290.6,187.6,291.5,187.2z"/>
			<path class="st29" d="M376.2,209.5c0.3-7.2,0-14.2-0.8-21.4c-0.2-1.2,0.4-2.1,0.1-3.3c-0.4-1.5-0.4-3.1-1.7-4.3
				c-0.5-0.6-1.2-1.1-1.9-1.5c-1.2-0.5-2.4-0.5-3.6-0.3c-2.7,0.8-4.8-0.7-4.8-3.3c-0.1-0.7-0.3-1.3-0.3-2c-1.3,0.7-2.6,1.3-3.9,2
				c-1.3,0.7-2.6,1.4-3.9,2.1c-1.2,0.8-2.5,1.6-3.8,2.3c-1.3,0.7-2.6,1.3-3.9,1.9c-2.2,0.9-4.4,1.7-6.7,2.5
				c-3.8,1.3-7.7,2.4-11.6,3.4c2.1-0.4,4.2-0.9,6.4-1.4c-12.9,5.1-27.2,4.8-40.9,5.1c-1.8,0-4.9,1.9-3.5,3.4
				c9.1,10.2,21.5,9.5,34,7.6c1.8-0.3,3.6-0.6,5.3-0.9c6.4-1.5,13.8-3.2,20.2-1.3c1.1,0.3,2.1,0.8,3.1,1.3c4.3,2.5,6.2,6.6,7.1,11.2
				c0.4,2.3,0.6,4.7,0.7,7c0.2,4.2-0.3,8.7,0.1,12.9c0.2,3,0.3,6,0.5,9c0.6,15.1,0.3,30.1-0.8,45.3c-0.1,1.9-0.2,3.8-0.3,5.7
				c-0.2,3.8-0.3,7.6-0.3,11.4c0.1,3.7-0.9,7.4-2.3,10.8c-0.7,1.7-1.5,3.3-2.4,4.9c-4.5,7.9-11.8,14.2-20.6,17
				c-2,0.7-4.2,1.2-6.3,1.5c-2.2,0.3-4.4,0.5-6.7,0.4c-1.8,0.2-3.6,0.4-5.4,0.5c-5.4,0.4-10.7,0.6-15.8,1c-3.3,0-6.5-0.1-9.8-0.3
				c-16.2-1-32.1-4.8-46.7-11.9c-0.7-0.6-1.4-1.2-2-1.8c-2.4-2.5-4.2-5.3-5.7-8.3c-0.4-0.7-0.7-1.5-1-2.3c-1.9-3.6-3-11.7-7.5-8.8
				c-6.6,4.1-1.2,14.2-0.7,21c0.3,1,0.7,1.9,1.1,2.9c4.7,12,18.7,14.1,29.7,17.1c1.9,0.5,3.9,0.9,5.8,1.3c5.8,1.2,11.7,2.1,17.5,2.7
				c2.9,0.3,5.9,0.5,8.9,0.7c18.7,0.9,36.8-1.7,55.6-6.3c8.4-2,16.8-4.9,22-11.9c2.3-2.9,4.1-6.3,5.5-9.6c0.3-0.9,0.6-1.7,0.9-2.6
				c0.3-0.9,0.5-1.8,0.7-2.6c0.7-2.7,1.1-5.4,1.4-8.2c0.1-1.9,0.1-3.8,0.2-5.8c0.5-17.8,0.2-35.3,0.1-53c0-2.7,0.1-5.3,0.2-8
				c0.3-10.7,0.6-21.4-0.9-31.9C376.4,211.5,376.3,210.5,376.2,209.5z"/>
			<g class="st30">
				<path class="st31" d="M374.8,179.1c-0.9,1.7-1.4,4.1-2.7,5.7c-0.2,0.2-0.4,0.5-0.7,0.7c-0.5,0.4-1.1,0.7-1.6,1
					c-0.5,0.3-1.1,0.7-1.7,1c-1,0.5-2,0.9-3,1.4c-0.5,0.2-1,0.4-1.5,0.6c-6.6,2.9-14.4,2.6-20.8,6.2c6.1,3.2,13.3-0.2,19.9-1.7
					c0.4-0.1,0.8-0.2,1.2-0.3c0.4,0,0.7-0.1,1.1-0.1c1.9-0.4,4.2,0,6.1,1.1c0.4,0.2,0.7,0.4,1,0.7c1.9,1.6,2.3,4,2.1,6.3
					c0,0.4,0,0.8,0.1,1.1c0,0.4,0,0.8,0.1,1.1c0.9,16.9,1,33.8,0.7,50.7c0,3,0,5.9-0.1,8.9c-0.1,14.8-0.4,29.5-0.5,44.3
					c-0.1,4.4-0.2,7.5-0.4,8.7c-0.1,1.1-0.3,2.2-0.5,3.2c-0.2,1.1-0.5,2.1-0.8,3.2c-0.8,2.6-2.1,4.9-3.9,6.9c-1.8,2-3.9,3.7-6.3,4.8
					c-19.6,8.4-41.1,12.1-62.4,12.3c-3.4,0-6.8,0-10.1-0.1c-10.1-0.4-20.1-1.6-30-3.9c-2.1-0.5-4.1-1-6.1-1.5
					c-7.4-2.2-16.1-3.8-20.9-10.4c-1.2-1.5-2.1-3.3-2.9-5.1c-1-2.3-1.6-4.7-2.1-7.2c-0.1-0.5-0.2-1-0.3-1.6
					c-0.1-0.4-0.1-0.7-0.1-1.1c-0.2-1.7,0.6-4.4-1-5c-2.5-1-1.7,3.7-1.8,5.7c0,0.3,0.1,0.6,0.1,1c0,0.3,0.1,0.6,0.1,1
					c0.2,2,0.5,4.1,0.9,6.1s1.1,4,1.9,5.9c4.9,12.3,19.3,14.2,30.4,17.4c2,0.5,4.1,0.9,6.2,1.3c6.2,1.1,12.4,1.9,18.7,2.4
					c3.1,0.2,6.3,0.4,9.4,0.5c23.3,0.8,46.7-2.3,68.7-11c3.8-1.5,7.3-4.1,9.9-7.3c2.6-3.1,4.5-6.8,5.1-10.8c0.1-0.7,0.2-1.5,0.3-2.2
					c0.2-1.2,0.3-4.4,0.4-9c0.1-16,0.4-32.7,0.4-49.6c0-2.8,0-5.6,0-8.4c0.4-18.5,0.1-37.1-1.1-55.5c0-0.4-0.1-0.9-0.1-1.3
					c0-0.3-0.1-0.7-0.1-1c-0.1-0.6-0.1-1.1-0.1-1.7c-0.2-3.2-0.6-6.7-0.8-10c-0.1-0.6-0.1-1.2-0.2-1.8c0-0.6-0.1-1.2-0.1-1.8
					C374.9,180.2,374.9,179.6,374.8,179.1z"/>
			</g>
			<g class="st32">
				<path class="st33" d="M377,308.3c0,0.4,0,0.8,0,1.3c-0.1,4.6-0.2,7.7-0.4,9c-0.1,0.7-0.2,1.5-0.3,2.2s-0.3,1.5-0.4,2.2
					c-0.8,3.6-2.7,6.8-5.2,9.5c-2.6,2.6-5.5,4.8-8.9,6.2c-22.1,8.8-45.6,12-69.1,11.3c-3.1-0.1-6.3-0.2-9.4-0.5
					c-6.3-0.5-12.5-1.3-18.7-2.4c-2.1-0.4-4.1-0.8-6.2-1.3c-11.2-3.1-25.8-5.1-30.4-17.4c-0.6-1.5-1.2-3.1-1.6-4.7l-0.5,0
					c0.1,0.4,0.2,0.8,0.2,1.2c0.5,2,1.1,4,1.9,5.9c4.9,12.3,19.3,14.2,30.4,17.4c2,0.5,4.1,0.9,6.2,1.3c6.2,1.1,12.4,1.9,18.7,2.4
					c3.1,0.2,6.3,0.4,9.4,0.5c23.3,0.8,46.7-2.3,68.7-11c3.8-1.5,7.3-4.1,9.9-7.3c2.6-3.1,4.5-6.8,5.1-10.8c0.1-0.7,0.2-1.5,0.3-2.2
					c0.2-1.2,0.3-4.4,0.4-9C377,310.7,377,309.5,377,308.3L377,308.3z"/>
			</g>
			<path class="st4" d="M374.9,179.9c0.2,11.4-34.1,21.2-76.1,21.8c-30,0.5-56-3.9-68.5-10.5c-0.6-0.3-1.2-0.7-1.8-1
				c-0.9-0.6-1.8-1.2-2.6-1.9c-0.4-0.3-0.8-0.7-1.2-1.1c-3.6-3.5-2.3-9.7,2-12c0.5-0.4,1-0.7,1.5-1.1c11.4-7.6,38.4-13.2,69.9-13.7
				C340.2,159.8,374.7,168.5,374.9,179.9z"/>
			<path class="st33" d="M359,167.6c-1.8,4.7-3.4,9.4-5,14.2c-0.5,1.5-1.3,2.6-2.6,3.5c-1.3,0.9-3,1-4.4,0.6
				c-1.4-0.3-2.8-1.4-3.5-2.6c-0.7-1.2-1.1-3.1-0.6-4.4c0.8-2.3,1.6-4.6,2.4-6.9l-29.2,0.4l0.1,7.4l-76,1.1l0-1.4
				c-0.4-0.2-0.8-0.5-1.1-0.8c-2.4-1.9-4.7-3.7-7.1-5.6c-0.3-0.2-0.5-0.4-0.7-0.7c-1.9,1-3.5,2-4.8,3.1c-0.6,0.5-1.2,1.1-1.7,1.6
				c-2.5,2.7-2.2,6.8-0.1,9.8c1,1.3,2.3,2.3,3.7,3.1c0.5,0.3,0.9,0.6,1.5,0.9c12.2,6.8,38.6,11.3,69.1,10.9
				c42-0.6,76.2-10.4,76.1-21.8C374.8,175.2,368.9,171,359,167.6z"/>
			<path class="st9" d="M360.4,184.4c-0.5-0.9-1-1.9-1.6-2.8c-2.4-0.6-4.6-1.6-6.8-2.8c-2.1-1.2-4.2-2.5-6.4-3.5
				c-2.9-1.1-6.1-1.6-9.1-2.4c-2-0.6-4-1.3-5.8-2.3c-1.4-0.8-2.8-1.5-4.3-2.1c-2.2-0.8-4.5-1.6-6.8-1.9c-1.7-0.1-3.3,0-4.9,0.2
				c-4.1,0.7-8.1,1.7-12.3,1.5c-1.9-0.1-3.5-1-4.4-2.5c-2.2,0.6-4.3,1.5-6.5,2.1c-2.8,0.8-5.6,1.1-8.5,1.1c-2.4,0-4.7,0-7.1,0.2
				c0,1.3-0.5,2.6-1.4,3.3c-1.4,1.1-2.6,2-4.3,2.6c-1,0.4-2.1,0.6-3.2,0.6c-1.7,0.1-3.4-0.3-5.1-0.6c-2-0.2-4.1-0.1-6.1,0.2
				c-2.8,0.5-5.4,1.3-8,2.3c-2.2,0.8-4.4,1.4-6.6,2.3c-1,0.5-1.9,1-2.7,1.6c-0.2,0.2-0.5,0.4-0.7,0.7c-0.6,0.9-1.1,1.9-1.6,2.8
				c-0.5,0.8-1,1.5-1.7,2.1c-0.3,0.2-0.5,0.4-0.8,0.6c0,0.4-0.2,0.9-0.3,1.3c10.7,6.4,36,10.7,65.4,10.2
				c28.3-0.4,52.6-5.1,63.8-11.4C361.7,186.8,361,185.6,360.4,184.4z"/>
			<path class="st9" d="M360.4,184.4c-0.5-0.9-1-1.9-1.6-2.8c-2.4-0.6-4.6-1.6-6.8-2.8c-2.1-1.2-4.2-2.5-6.4-3.5
				c-2.9-1.1-6.1-1.6-9.1-2.4c-2-0.6-4-1.3-5.8-2.3c-1.4-0.8-2.8-1.5-4.3-2.1c-2.2-0.8-4.5-1.6-6.8-1.9c-1.7-0.1-3.3,0-4.9,0.2
				c-4.1,0.7-8.1,1.7-12.3,1.5c-1.9-0.1-3.5-1-4.4-2.5c-2.2,0.6-4.3,1.5-6.5,2.1c-2.8,0.8-5.6,1.1-8.5,1.1c-2.4,0-4.7,0-7.1,0.2
				c0,1.3-0.5,2.6-1.4,3.3c-1.4,1.1-2.6,2-4.3,2.6c-1,0.4-2.1,0.6-3.2,0.6c-1.7,0.1-3.4-0.3-5.1-0.6c-2-0.2-4.1-0.1-6.1,0.2
				c-2.8,0.5-5.4,1.3-8,2.3c-2.2,0.8-4.4,1.4-6.6,2.3c-1,0.5-1.9,1-2.7,1.6c-0.2,0.2-0.5,0.4-0.7,0.7c-0.6,0.9-1.1,1.9-1.6,2.8
				c-0.5,0.8-1,1.5-1.7,2.1c-0.3,0.2-0.5,0.4-0.8,0.6c0,0.4-0.2,0.9-0.3,1.3c10.7,6.4,36,10.7,65.4,10.2
				c28.3-0.4,52.6-5.1,63.8-11.4C361.7,186.8,361,185.6,360.4,184.4z"/>
			<path class="st10" d="M298.3,162.9c-39,0.6-70.5,9.2-70.3,19.3c0,3.2,3.2,6.1,8.7,8.6c2.7-8.2,29.3-15.1,61.8-15.6
				s59.3,5.5,62.3,13.7c5.4-2.7,8.5-5.7,8.4-8.8C369,170,337.3,162.3,298.3,162.9z"/>
			<path class="st11" d="M298.3,162.9c-39,0.6-70.5,9.2-70.3,19.3c0,3.2,3.2,6.1,8.7,8.6c2.7-8.2,29.3-15.1,61.8-15.6
				s59.3,5.5,62.3,13.7c5.4-2.7,8.5-5.7,8.4-8.8C369,170,337.3,162.3,298.3,162.9z"/>
			<g>
				<path class="st34" d="M242.3,170.9L242.3,170.9c-9.1,3.2-14.5,7.1-14.4,11.3c0,3.2,3.2,6.1,8.7,8.6c1.1-3.3,5.9-6.3,13.4-8.8
					c7.8-2.6,18.4-4.7,30.6-5.8c0.1-4.2,0.7-8.4,1.6-12.5C266,164.8,252,167.4,242.3,170.9z M243,172c0.1,0.2,0.3,0.5,0.4,0.7
					C243.3,172.5,243.1,172.3,243,172z M248,179.2c0.3,0.4,0.7,0.9,1,1.3C248.7,180.1,248.4,179.7,248,179.2z"/>
				<path class="st34" d="M298.3,162.9c-5.6,0.1-11,0.3-16.2,0.7c-0.9,4.1-1.5,8.3-1.6,12.5c5.7-0.5,11.7-0.9,17.9-0.9
					c32.5-0.5,59.3,5.5,62.3,13.7c5.4-2.7,8.5-5.7,8.4-8.8C369,170,337.3,162.3,298.3,162.9z"/>
			</g>
			<g>
				<path class="st34" d="M242.3,170.9L242.3,170.9c-9.1,3.2-14.5,7.1-14.4,11.3c0,3.2,3.2,6.1,8.7,8.6c1.1-3.3,5.9-6.3,13.4-8.8
					c7.8-2.6,18.4-4.7,30.6-5.8c0.1-4.2,0.7-8.4,1.6-12.5C266,164.8,252,167.4,242.3,170.9z M243,172c0.1,0.2,0.3,0.5,0.4,0.7
					C243.3,172.5,243.1,172.3,243,172z M248,179.2c0.3,0.4,0.7,0.9,1,1.3C248.7,180.1,248.4,179.7,248,179.2z"/>
				<path class="st34" d="M298.3,162.9c-5.6,0.1-11,0.3-16.2,0.7c-0.9,4.1-1.5,8.3-1.6,12.5c5.7-0.5,11.7-0.9,17.9-0.9
					c12.5-0.2,24.2,0.6,33.9,2.1l3-12.2C324.6,163.5,311.8,162.7,298.3,162.9z"/>
				<path class="st34" d="M363,172.7l-5.9,12.1c1.9,1.3,3.1,2.6,3.6,4.1c5.4-2.7,8.5-5.7,8.4-8.8C369.1,177.4,366.9,174.9,363,172.7
					z"/>
			</g>
			<path class="st13" d="M244.2,170.1c0.9,3.3,2.1,6.2,3.9,9.1c0.6,0.9,1.3,1.8,1.9,2.7c7.8-2.6,18.4-4.7,30.6-5.8
				c0.1-4.2,0.7-8.4,1.6-12.5c-9.4,0.7-18.1,1.9-25.6,3.4c-1.1,0.2-2.1,0.4-3.1,0.7c-2.4,0.6-4.9,1-7.3,1.7
				C245.4,169.7,244.8,169.9,244.2,170.1z"/>
			
				<ellipse transform="matrix(0.9999 -1.509070e-02 1.509070e-02 0.9999 -2.753 5.1325)" class="st14" cx="338.7" cy="185" rx="1" ry="0.9"/>
			<path class="st35" d="M229.4,205.8c-0.3,0.5-0.5,1-0.6,1.3c-1.5,4.7-1.8,10.2-1.7,15.1c0.1,3,2,15.9,7.9,11.1
				c2.3-1.9,2.6-5.7,3-8.4c0.6-3.7,0.9-7.4,1-11.1c0.1-3.4-0.2-7.2-2.4-9.9C234,200.7,231.1,202.7,229.4,205.8z"/>
			<path class="st35" d="M229.2,240.4c-1.9,2.8-1.7,6.3-1.3,9.5c0.4,2.5,2.9,5,5.5,3.8c3.6-1.8,3.7-6.7,3.4-10.2
				c-0.2-2.5-2.7-3.8-4.9-4C230.9,239.5,229.9,239.9,229.2,240.4z"/>
			<g class="st16">
				<path class="st17" d="M284.4,180.1c-8.6,0.8-17.1,2-25.7,3.3c-3.8,0.6-8.1,1.9-9.9,5.6c-1.2,2.5,4.2,4.3,7.3,4.6
					c24.6,2.1,49,2.7,73.7,0.3c0.1,0,0.3,0,0.4,0c1.5-0.1,11.2-2.1,7.6-5.2c-0.4-0.3-0.9-0.5-1.4-0.7c-7.3-2.4-15.6-1.2-22.9,0.2
					c-1.8,0.3-3.8,0.4-5.4-0.5c-0.3-0.2-0.6-0.4-0.8-0.7c-0.9-1.7,2-2.9,3.1-3.1c1.9-0.4,4,0,5.9-0.4c2.2-0.4,1.1-3.1-0.1-4
					c-1-0.8-2.4-1-3.7-1.2c-4-0.4-7.9,0.5-11.8,0.6c-4.1,0.2-8.1,0.4-12.2,0.8C287.1,179.8,285.8,179.9,284.4,180.1z"/>
			</g>
		</g>
		<g>
			<path class="st18" d="M166.2,278.2c-1.2-0.4-2.5,0.3-2.8,1.6c-7.8,31,9.9,63.1,40.9,72.9c31,9.7,63.9-6.5,75.2-36.4
				c0.4-1.2-0.2-2.5-1.4-2.9L166.2,278.2z"/>
			<g>
				<path class="st19" d="M191.1,335.4c-1,1.2-1.2,3.1-0.4,4.1c3.8,4.9,8.9,7.5,14.7,9.3c4.8,1.5,9.4,2.5,14.3,1.5
					c1.9-0.4,3.4-2.9,3.4-5.3l-1.5-41.2c-0.1-2.2-2.1-2.9-3.5-1.2L191.1,335.4z"/>
				<path class="st19" d="M225.1,346.3c0.1,1.5,1.2,3.1,2.3,3.4c5.6,1.4,11.2,0.4,16.2-1.8c4.1-1.8,7.5-3.9,10.1-7.7
					c1-1.5,0.5-4.3-1.1-6.2l-26.9-30.8c-1.5-1.7-3.2-1-3.1,1.2L225.1,346.3z"/>
				<path class="st19" d="M189,334.5c-1,1.2-2.8,1.7-3.9,1.2c-5.4-2.5-9-6.8-11.7-11.8c-2.2-4.1-3.8-8-3.6-12.8
					c0.1-1.8,2.2-3.8,4.6-4.2l40.3-7.3c2.2-0.4,3.2,1.3,1.8,3L189,334.5z"/>
				<path class="st19" d="M255.1,333.8c1,1.1,2.9,1.8,3.9,1.3c4.6-2.3,7.7-4.5,10.9-8.6c3.3-4.3,5.2-7.2,3.6-11.4
					c-1.6-3.9-44.7-14.9-44.7-14.9c-2.2-0.5-3.1,1.1-1.6,2.7L255.1,333.8z"/>
				<path class="st19" d="M171.9,305.7c-1.5,0.3-3.4-0.3-3.8-1.4c-2.3-5.3-3.1-10-2.3-15.1c0.7-4.2,0-9.4,9.5-6.4l38.1,13
					c2,1,1.8,2.8-0.4,3.1L171.9,305.7z"/>
			</g>
		</g>
	</g>
	<g>
		<path class="st20" d="M269.1,280.2c-1.4-2.9-5.1-3.9-8-3.5c0,0,0,0,0,0c0,0,0,0,0,0c-2.5,0.4-5.8,1.8-6.6,4.5
			c-0.8,2.8,2.1,4.8,4.5,5.4c2.5,0.6,5.1,0.3,7.4-0.8C268.3,284.7,270.3,282.6,269.1,280.2z"/>
		<path class="st20" d="M322.1,276.7C322.1,276.6,322.1,276.6,322.1,276.7C322.1,276.6,322,276.6,322.1,276.7
			c-2.9-0.4-5.9,0.4-7.6,2.7c-0.7,0.9-1.1,2.1-0.7,3.3c0.4,1.1,1.2,2,2.2,2.6c2.1,1.3,4.8,1.8,7.2,1.5c2.3-0.3,5.5-1.8,5.6-4.6
			C328.9,278.8,324.8,277,322.1,276.7z"/>
		<path class="st21" d="M300.1,284.2c-0.4,1.2-2.1,1.5-2.9,0.5c-0.4-0.5-0.4-1.4-0.6-2c-0.3-1-0.9-2-1.6-2.8c-1.6-1.7-3.9-2-5.8-0.7
			c-1,0.7-1.7,1.7-2.2,2.7c-0.4,0.8-0.4,1.9-1,2.5c-1.3,1.2-3,0-2.8-1.6c0,0,0,0,0,0c0,0,0,0,0-0.1c0.7-3.5,3.4-6.8,6.9-7.6
			c3.5-0.8,6.9,1.3,8.7,4.2C299.5,280.7,300.6,282.8,300.1,284.2z"/>
		<g>
			<path class="st21" d="M255,270.8c1.9,2.3,5,4,8.1,4c3.1,0,5.8-2.1,7.3-4.6c1.3-2.1-2.1-4.1-3.3-2c-0.9,1.5-2.4,2.9-4.3,2.7
				c-2-0.2-3.8-1.4-5-2.9c-0.7-0.8-2-0.7-2.7,0C254.2,268.9,254.3,270,255,270.8L255,270.8z"/>
		</g>
		<g>
			<path class="st21" d="M312.5,270.8c1.9,2.3,5,4,8.1,4c3.1,0,5.8-2.1,7.3-4.6c1.3-2.1-2.1-4.1-3.3-2c-0.9,1.5-2.4,2.9-4.3,2.7
				c-2-0.2-3.8-1.4-5-2.9c-0.7-0.8-2-0.7-2.7,0C311.7,268.9,311.8,270,312.5,270.8L312.5,270.8z"/>
		</g>
	</g>
</g>
</svg>
