<?xml version="1.0" encoding="utf-8"?>
<!-- Generator: Adobe Illustrator 21.0.0, SVG Export Plug-In . SVG Version: 6.00 Build 0)  -->
<svg version="1.1" id="Layer_1" xmlns="http://www.w3.org/2000/svg" xmlns:xlink="http://www.w3.org/1999/xlink" x="0px" y="0px"
	 viewBox="0 0 1080 1080" style="enable-background:new 0 0 1080 1080;" xml:space="preserve">
<g>
	<g>
		<g>
			<path d="M737.6,683.3L679,625.2c-1.5-1.5-2.9-3-4.3-4.5l-9.5-10l6.3-9.3c23.2-34.1,37.7-69,44.3-106.5c7.2-41.2,4.9-82.4-7-122.3
				c-14.1-47.5-40.2-88.5-77.5-121.9c-35.3-31.7-77.2-52.4-124.5-61.7c-8.4-1.7-17-2.8-25.6-3.9l-11.2-1.5h-32.8l-6.8,1
				c-5.4,0.8-10.8,1.5-16.2,2.4c-50.7,8.4-95.3,29.2-132.7,61.9c-50.8,44.5-80.7,100.7-88.9,167.1c-8.3,67.6,7.3,129.7,46.4,184.7
				c45.3,63.8,108,101,186.3,110.6c54.8,6.7,107.9-3.8,157.5-31.3c4.5-2.5,8.8-3.7,12.9-3.7c6,0,11.7,2.7,17.1,8.1
				c62.3,62.2,124.8,124.3,187.3,186.3l8.2,8.1c3.1,3.1,6.4,6,9.8,8.8c10.4,8.5,24.9,11.3,38.9,7.3c13.9-4,24.8-13.9,29.1-26.7
				c6.4-19,2.6-34.6-12.1-49.2C828.7,773.7,783.2,728.5,737.6,683.3z M592.5,584.9c-36.6,36.9-85.2,57.2-137,57.4
				c-0.2,0-0.4,0-0.6,0c-106,0-192.7-86.4-193.4-192.9c-0.3-51.7,19.6-100.4,56.1-137.1c36.5-36.7,85.1-57,137.1-57.3
				c0.3,0,0.7,0,1,0c51.1,0,99.3,19.9,135.7,56.2c36.7,36.5,57,85,57.3,136.6C649,499.4,629,548.1,592.5,584.9z"/>
		</g>
	</g>
</g>
</svg>
