<?xml version="1.0" encoding="utf-8"?>
<!-- Generator: Adobe Illustrator 21.0.0, SVG Export Plug-In . SVG Version: 6.00 Build 0)  -->
<svg version="1.1" id="Layer_1" xmlns="http://www.w3.org/2000/svg" xmlns:xlink="http://www.w3.org/1999/xlink" x="0px" y="0px"
	 viewBox="0 0 512 512" style="enable-background:new 0 0 512 512;" xml:space="preserve">
<style type="text/css">
	.st0{fill:#231F20;}
	.st1{fill:#279599;}
</style>
<g>
	<path class="st1" d="M481.7,192.2c-6.1-7.7-15.4-12.1-25.3-12.1h-89.6L318.2,68.9c-3-6.9-11-10.1-17.9-7c-6.9,3-10,11-7,17.9
		l43.8,100.3H174.9l43.8-100.3c3-6.9-0.1-14.9-7-17.9c-6.9-3-14.9,0.1-17.9,7l-48.6,111.3H55.6c-9.9,0-19.1,4.4-25.3,12.1
		c-6,7.6-8.3,17.3-6.1,26.7L72,428c3.3,14.6,16.3,24.8,31.4,24.8h305.2c15.1,0,28.1-10.2,31.4-24.8l47.9-209
		C490,209.5,487.8,199.8,481.7,192.2L481.7,192.2z M408.6,425.5H103.4c-2.3,0-4.3-1.5-4.8-3.6l-47.9-209c-0.4-1.6,0.3-2.9,0.9-3.6
		c0.6-0.7,1.8-1.9,4-1.9h77.7l-3.6,8.2c-3,6.9,0.1,14.9,7,17.9c1.8,0.8,3.6,1.1,5.4,1.1c5.3,0,10.3-3.1,12.5-8.2l8.3-19.1h186
		l8.3,19.1c2.2,5.1,7.2,8.2,12.5,8.2c1.8,0,3.7-0.4,5.4-1.1c6.9-3,10-11,7-17.9l-3.6-8.2h77.7c2.2,0,3.4,1.2,4,1.9
		c0.6,0.7,1.2,2,0.9,3.6l-47.9,209C412.9,424,410.9,425.5,408.6,425.5L408.6,425.5z"/>
</g>
</svg>
