<?xml version="1.0" encoding="utf-8"?>
<!-- Generator: Adobe Illustrator 21.0.0, SVG Export Plug-In . SVG Version: 6.00 Build 0)  -->
<svg version="1.1" id="Layer_1" xmlns="http://www.w3.org/2000/svg" xmlns:xlink="http://www.w3.org/1999/xlink" x="0px" y="0px"
	 viewBox="0 0 512 512" style="enable-background:new 0 0 512 512;" xml:space="preserve">
<style type="text/css">
	.st0{fill:#231F20;}
	.st1{fill:#279599;}
</style>
<g>
	<g>
		<path class="st0" d="M405.7,112.5c-39.1-40.8-93.2-63.9-149.8-63.8c-114.3-0.1-207,92.4-207.2,206.7
			c-0.1,56.5,23,110.6,63.8,149.7c0.1,0.1,0.2,0.3,0.3,0.4c1.2,1.2,2.5,2.1,3.7,3.2c3.3,3,6.7,6,10.2,8.9c1.9,1.5,3.8,3,5.8,4.3
			c3.3,2.5,6.6,4.9,10.1,7.2c2.4,1.5,4.8,3,7.2,4.4c3.2,1.9,6.4,3.9,9.7,5.6c2.8,1.5,5.7,2.8,8.5,4.1c3.1,1.5,6.2,3,9.4,4.3
			s6.4,2.4,9.6,3.5s6,2.2,9.1,3.2c3.5,1.1,7.1,1.9,10.6,2.7c3,0.7,5.8,1.6,8.9,2.1c4.1,0.8,8.2,1.3,12.4,1.9
			c2.6,0.4,5.1,0.9,7.6,1.1c6.8,0.7,13.6,1,20.5,1s13.7-0.4,20.5-1c2.6-0.3,5.1-0.8,7.6-1.1c4.1-0.6,8.3-1.1,12.4-1.9
			c3-0.6,5.9-1.5,8.9-2.1c3.6-0.9,7.1-1.7,10.6-2.7c3.1-0.9,6.1-2.1,9.1-3.2s6.5-2.2,9.6-3.5c3.2-1.3,6.2-2.8,9.4-4.3
			c2.8-1.3,5.7-2.6,8.5-4.1c3.3-1.8,6.5-3.7,9.7-5.6c2.4-1.5,4.8-2.8,7.2-4.4c3.5-2.3,6.8-4.7,10.1-7.2c1.9-1.5,3.9-2.8,5.8-4.3
			c3.5-2.8,6.8-5.8,10.2-8.9c1.2-1.1,2.5-2.1,3.7-3.2c0.1-0.1,0.2-0.3,0.3-0.4C482,326,484.8,195.1,405.7,112.5z M372.5,389.6
			c-2.7,2.4-5.5,4.6-8.3,6.8c-1.7,1.3-3.3,2.5-5,3.7c-2.7,1.9-5.4,3.8-8.2,5.5c-2,1.3-4.1,2.5-6.1,3.7c-2.6,1.5-5.3,3-7.9,4.4
			c-2.4,1.2-4.8,2.4-7.2,3.5c-2.4,1.1-5.1,2.3-7.7,3.4c-2.6,1.1-5.4,2-8.1,3c-2.5,0.9-5,1.7-7.5,2.5c-3,0.9-6.1,1.6-9.1,2.4
			c-2.4,0.6-4.8,1.2-7.2,1.7c-3.5,0.7-7.1,1.2-10.7,1.6c-2,0.3-4.1,0.6-6.1,0.8c-5.7,0.5-11.4,0.9-17.3,0.9
			c-5.8,0-11.6-0.3-17.3-0.9c-2.1-0.2-4.1-0.6-6.1-0.8c-3.6-0.5-7.2-1-10.7-1.6c-2.4-0.5-4.8-1.1-7.2-1.7c-3.1-0.7-6.1-1.5-9.1-2.4
			c-2.5-0.8-5-1.6-7.5-2.5c-2.7-0.9-5.5-1.9-8.1-3c-2.7-1.1-5.2-2.2-7.7-3.4s-4.8-2.3-7.2-3.5c-2.7-1.4-5.3-2.9-7.9-4.4
			c-2.1-1.2-4.1-2.5-6.1-3.7c-2.8-1.8-5.5-3.6-8.2-5.5c-1.7-1.2-3.4-2.5-5-3.7c-2.8-2.2-5.6-4.4-8.3-6.8c-0.7-0.5-1.2-1.1-1.9-1.7
			c0.7-50.3,33-94.8,80.7-110.9c23.8,11.3,51.5,11.3,75.4,0c47.7,16.1,80,60.6,80.7,110.9C373.7,388.5,373.1,389.1,372.5,389.6z
			 M204.3,167.4c16-28.5,52.1-38.6,80.6-22.6c28.5,16,38.6,52.1,22.6,80.6c-5.3,9.5-13.1,17.3-22.6,22.6c0,0-0.2,0-0.3,0.1
			c-3.9,2.2-8.1,3.9-12.4,5.2c-0.8,0.2-1.5,0.5-2.3,0.7c-1.5,0.4-3,0.7-4.6,0.9c-2.9,0.5-5.8,0.8-8.7,0.9h-1.7
			c-2.9-0.1-5.8-0.4-8.7-0.9c-1.5-0.3-3-0.5-4.6-0.9c-0.8-0.2-1.5-0.5-2.3-0.7c-4.3-1.3-8.4-3.1-12.4-5.2l-0.3-0.1
			C198.4,232,188.3,195.9,204.3,167.4z M400.6,358.6L400.6,358.6c-9.5-44.3-38.7-81.8-79.2-102c33.2-36.1,30.8-92.3-5.4-125.4
			s-92.3-30.8-125.4,5.4c-31.2,34-31.2,86.1,0,120.1c-40.6,20.2-69.7,57.7-79.2,102c-56.7-79.9-37.9-190.7,42-247.5
			s190.7-37.9,247.5,42c21.3,30,32.8,66,32.8,102.8C433.5,292.8,422,328.6,400.6,358.6z"/>
	</g>
</g>
</svg>
