<?xml version="1.0" encoding="utf-8"?>
<!-- Generator: Adobe Illustrator 21.0.0, SVG Export Plug-In . SVG Version: 6.00 Build 0)  -->
<svg version="1.1" id="Layer_1" xmlns="http://www.w3.org/2000/svg" xmlns:xlink="http://www.w3.org/1999/xlink" x="0px" y="0px"
	 viewBox="0 0 512 512" style="enable-background:new 0 0 512 512;" xml:space="preserve">
<style type="text/css">
	.st0{fill:#FFFFFF;}
</style>
<g id="Layer_1_1_">
	<g>
		<g>
			<path class="st0" d="M431.9,87.4c-46-47.9-109.6-75-176-75C121.6,12.3,12.6,121,12.5,255.3c-0.1,66.4,27,130,75,175.8
				c0.1,0.1,0.2,0.3,0.3,0.5c1.4,1.4,2.9,2.5,4.4,3.8c3.9,3.5,7.8,7,12,10.5c2.2,1.7,4.5,3.5,6.8,5.1c3.9,2.9,7.8,5.8,11.8,8.5
				c2.7,1.7,5.6,3.5,8.5,5.2c3.8,2.3,7.5,4.5,11.4,6.6c3.3,1.7,6.6,3.2,10,4.8c3.6,1.7,7.2,3.5,11,5.1c3.8,1.6,7.5,2.8,11.3,4.2
				s7,2.6,10.7,3.7c4.1,1.2,8.3,2.2,12.5,3.2c3.5,0.8,6.8,1.8,10.5,2.5c4.8,1,9.6,1.6,14.6,2.3c3,0.4,6,1,9,1.3
				c7.9,0.8,16,1.2,24.1,1.2c8.1,0,16.1-0.4,24.1-1.2c3-0.3,6-0.9,9-1.3c4.9-0.7,9.7-1.3,14.6-2.3c3.5-0.7,7-1.7,10.5-2.5
				c4.2-1,8.4-2,12.5-3.2c3.6-1.1,7.1-2.5,10.7-3.7c3.6-1.2,7.6-2.6,11.3-4.2c3.7-1.5,7.3-3.4,11-5.1c3.4-1.6,6.7-3.1,10-4.8
				c3.9-2.1,7.6-4.4,11.4-6.6c2.8-1.7,5.7-3.4,8.5-5.2c4-2.7,7.9-5.6,11.8-8.5c2.3-1.7,4.6-3.3,6.8-5.1c4.1-3.3,8-6.8,12-10.5
				c1.4-1.3,2.9-2.5,4.4-3.8c0.1-0.1,0.2-0.3,0.3-0.5C521.5,338.3,524.8,184.4,431.9,87.4z M392.8,413c-3.1,2.8-6.4,5.4-9.7,8
				c-1.9,1.5-3.9,2.9-5.9,4.4c-3.1,2.3-6.4,4.4-9.6,6.5c-2.4,1.5-4.8,2.9-7.2,4.4c-3.1,1.7-6.2,3.5-9.3,5.2
				c-2.8,1.4-5.6,2.7-8.5,4.1c-2.9,1.3-6,2.7-9.1,4c-3.1,1.2-6.4,2.4-9.6,3.5c-2.9,1-5.9,2.1-8.8,2.9c-3.5,1-7.1,1.9-10.7,2.7
				c-2.8,0.7-5.6,1.4-8.5,2c-4.1,0.8-8.3,1.4-12.6,1.9c-2.4,0.3-4.8,0.8-7.2,1c-6.7,0.6-13.5,1-20.2,1c-6.8,0-13.6-0.4-20.2-1
				c-2.4-0.3-4.8-0.7-7.2-1c-4.2-0.5-8.4-1.2-12.6-1.9c-2.9-0.5-5.6-1.3-8.5-2c-3.6-0.9-7.2-1.7-10.7-2.7c-2.9-0.9-5.9-1.9-8.8-2.9
				c-3.2-1.1-6.4-2.3-9.6-3.5c-3.1-1.2-6.1-2.6-9.1-4s-5.7-2.7-8.5-4.1c-3.1-1.6-6.3-3.4-9.3-5.2c-2.5-1.4-4.9-2.9-7.2-4.4
				c-3.3-2.1-6.4-4.2-9.6-6.5c-2-1.4-4-2.9-5.9-4.4c-3.3-2.5-6.6-5.2-9.7-8c-0.8-0.5-1.4-1.3-2.2-2c0.8-59.2,38.8-111.3,94.8-130.3
				c28,13.3,60.5,13.3,88.6,0c56,18.9,94,71.2,94.8,130.3C394.3,411.7,393.6,412.4,392.8,413z M195.2,151.9
				c18.8-33.5,61.2-45.3,94.7-26.5s45.3,61.2,26.5,94.7c-6.2,11.1-15.5,20.3-26.5,26.5c0,0-0.2,0-0.3,0.1c-4.6,2.6-9.5,4.7-14.6,6.2
				c-0.9,0.3-1.7,0.6-2.7,0.8c-1.7,0.5-3.6,0.8-5.3,1.1c-3.4,0.6-6.8,1-10.2,1h-2c-3.4-0.1-6.8-0.4-10.2-1c-1.7-0.3-3.6-0.6-5.3-1.1
				c-0.9-0.2-1.7-0.5-2.7-0.8c-5.1-1.5-9.9-3.6-14.6-6.2l-0.3-0.1C188.3,227.8,176.4,185.4,195.2,151.9z M425.9,376.5L425.9,376.5
				c-11.1-52-45.4-96.2-93.1-119.8c39-42.5,36.1-108.4-6.3-147.4s-108.4-36.1-147.4,6.3c-36.7,39.9-36.7,101.2,0,141.1
				c-47.7,23.7-81.9,67.8-93.1,119.8c-66.7-93.9-44.6-224.1,49.3-290.8s224.1-44.6,290.8,49.3c25,35.3,38.5,77.6,38.5,120.9
				C464.6,299.2,451,341.4,425.9,376.5z"/>
		</g>
	</g>
</g>
</svg>
