<?xml version="1.0" encoding="utf-8"?>
<!-- Generator: Adobe Illustrator 21.0.0, SVG Export Plug-In . SVG Version: 6.00 Build 0)  -->
<svg version="1.1" id="Layer_1" xmlns="http://www.w3.org/2000/svg" xmlns:xlink="http://www.w3.org/1999/xlink" x="0px" y="0px"
	 viewBox="0 0 512 512" style="enable-background:new 0 0 512 512;" xml:space="preserve">
<style type="text/css">
	.st0{fill:#231F20;}
	.st1{fill:#279599;}
</style>
<g>
	<g>
		<path class="st0" d="M367.3,336.7l-33-32.7c-0.8-0.8-1.6-1.7-2.4-2.5l-5.4-5.7l3.6-5.2c13.1-19.2,21.2-38.8,24.9-60
			c4.1-23.2,2.8-46.4-3.9-68.9c-8-26.7-22.6-49.8-43.6-68.7c-19.9-17.8-43.5-29.5-70.1-34.8c-4.8-0.9-9.6-1.6-14.4-2.2l-6.3-0.9
			h-18.5l-3.8,0.5c-3,0.4-6.1,0.9-9.1,1.4c-28.6,4.7-53.7,16.5-74.7,34.9C81.9,117,65.1,148.6,60.5,186
			c-4.7,38.1,4.1,73.1,26.1,104.1c25.5,35.9,60.8,56.9,104.9,62.3c30.9,3.8,60.8-2.1,88.7-17.6c2.5-1.4,5-2.1,7.3-2.1
			c3.4,0,6.6,1.5,9.6,4.5c35.1,35.1,70.3,70,105.5,105l4.6,4.6c1.8,1.7,3.6,3.4,5.5,5c5.9,4.8,14,6.4,21.9,4.1
			c7.8-2.2,14-7.9,16.4-15c3.6-10.7,1.5-19.5-6.8-27.7C418.6,387.6,393,362.2,367.3,336.7z M285.6,281.3
			c-20.6,20.8-48,32.2-77.2,32.3c-0.1,0-0.2,0-0.3,0c-59.7,0-108.6-48.7-108.9-108.7c-0.2-29.1,11-56.5,31.6-77.2
			c20.5-20.7,48-32.1,77.2-32.3c0.2,0,0.4,0,0.6,0c28.8,0,55.9,11.2,76.5,31.6c20.7,20.5,32.1,47.9,32.3,77
			C317.4,233.1,306.2,260.6,285.6,281.3z"/>
	</g>
</g>
</svg>
