<svg width="350" height="350" xmlns="http://www.w3.org/2000/svg" xml:space="preserve" version="1.1">
 <desc>Created with Fabric.js 1.7.22</desc>

 <g>
  <title>Layer 1</title>
  <g transform="translate(-1.94444 -1.94444) scale(3.89 3.89)" id="icon">
   <path fill="#12767f" id="svg_1" stroke-linecap="round" d="m87.049,81.713c0.232,-0.277 0.444,-0.564 0.649,-0.855c0.032,-0.045 0.067,-0.088 0.098,-0.134c0.184,-0.27 0.35,-0.547 0.511,-0.827c0.042,-0.073 0.088,-0.144 0.128,-0.218c0.146,-0.266 0.276,-0.537 0.401,-0.811c0.043,-0.094 0.089,-0.186 0.13,-0.28c0.113,-0.262 0.211,-0.528 0.305,-0.796c0.039,-0.112 0.081,-0.223 0.117,-0.336c0.082,-0.257 0.153,-0.516 0.219,-0.777c0.033,-0.129 0.065,-0.257 0.094,-0.386c0.055,-0.25 0.1,-0.501 0.14,-0.754c0.023,-0.144 0.044,-0.287 0.062,-0.432c0.03,-0.242 0.052,-0.484 0.068,-0.727c0.01,-0.158 0.018,-0.315 0.022,-0.473c0.007,-0.233 0.008,-0.465 0.003,-0.698c-0.004,-0.169 -0.013,-0.338 -0.024,-0.507c-0.014,-0.222 -0.031,-0.444 -0.057,-0.665c-0.021,-0.18 -0.049,-0.359 -0.077,-0.539c-0.033,-0.21 -0.067,-0.419 -0.111,-0.627c-0.04,-0.189 -0.089,-0.376 -0.137,-0.564c-0.051,-0.197 -0.1,-0.393 -0.16,-0.587c-0.061,-0.196 -0.133,-0.389 -0.203,-0.583c-0.066,-0.182 -0.129,-0.365 -0.204,-0.545c-0.084,-0.202 -0.181,-0.398 -0.276,-0.596c-0.08,-0.167 -0.154,-0.335 -0.242,-0.498c-0.111,-0.209 -0.238,-0.41 -0.361,-0.614c-0.089,-0.146 -0.171,-0.296 -0.267,-0.439c-0.15,-0.225 -0.317,-0.441 -0.483,-0.658c-0.087,-0.114 -0.165,-0.232 -0.256,-0.343c-0.265,-0.324 -0.548,-0.639 -0.85,-0.941l-8.159,-8.159c-0.302,-0.302 -0.617,-0.584 -0.941,-0.85c-0.111,-0.091 -0.228,-0.168 -0.342,-0.255c-0.218,-0.166 -0.434,-0.334 -0.66,-0.484c-0.143,-0.095 -0.291,-0.176 -0.437,-0.265c-0.204,-0.124 -0.406,-0.251 -0.615,-0.362c-0.163,-0.087 -0.331,-0.162 -0.497,-0.241c-0.198,-0.095 -0.396,-0.192 -0.598,-0.276c-0.18,-0.075 -0.364,-0.138 -0.547,-0.205c-0.193,-0.07 -0.384,-0.141 -0.58,-0.202c-0.196,-0.061 -0.394,-0.111 -0.592,-0.162c-0.186,-0.048 -0.372,-0.096 -0.559,-0.136c-0.21,-0.044 -0.42,-0.079 -0.631,-0.112c-0.178,-0.028 -0.356,-0.056 -0.535,-0.077c-0.222,-0.026 -0.444,-0.043 -0.667,-0.057c-0.169,-0.011 -0.337,-0.02 -0.506,-0.024c-0.234,-0.006 -0.467,-0.004 -0.7,0.003c-0.157,0.005 -0.313,0.012 -0.469,0.022c-0.244,0.016 -0.488,0.039 -0.731,0.069c-0.143,0.018 -0.285,0.039 -0.428,0.061c-0.254,0.04 -0.506,0.086 -0.758,0.141c-0.128,0.028 -0.255,0.061 -0.382,0.093c-0.262,0.066 -0.522,0.137 -0.781,0.22c-0.111,0.036 -0.221,0.077 -0.331,0.115c-0.269,0.095 -0.536,0.194 -0.8,0.307c-0.093,0.04 -0.184,0.085 -0.276,0.128c-0.275,0.126 -0.548,0.257 -0.815,0.403c-0.072,0.04 -0.142,0.084 -0.213,0.126c-0.282,0.162 -0.56,0.329 -0.831,0.514c-0.044,0.03 -0.086,0.065 -0.13,0.095c-0.293,0.205 -0.581,0.418 -0.859,0.651l0,0l0,0c-0.288,0.241 -0.572,0.49 -0.842,0.76l-5.52,5.52c-0.707,0.707 -1.854,0.707 -2.561,0l-23.861,-23.86c-0.707,-0.707 -0.707,-1.854 0,-2.561l5.52,-5.52c0.27,-0.27 0.52,-0.554 0.761,-0.842l0,0c0,0 0,0 0,0c0.232,-0.277 0.444,-0.564 0.649,-0.855c0.032,-0.045 0.067,-0.088 0.098,-0.134c0.184,-0.27 0.35,-0.547 0.511,-0.827c0.042,-0.073 0.088,-0.144 0.128,-0.218c0.146,-0.266 0.276,-0.537 0.401,-0.811c0.043,-0.094 0.089,-0.186 0.13,-0.28c0.113,-0.262 0.211,-0.528 0.305,-0.796c0.039,-0.112 0.081,-0.223 0.117,-0.336c0.082,-0.257 0.153,-0.516 0.219,-0.777c0.033,-0.129 0.065,-0.257 0.094,-0.386c0.055,-0.25 0.1,-0.501 0.14,-0.754c0.023,-0.144 0.044,-0.287 0.062,-0.432c0.03,-0.242 0.052,-0.484 0.068,-0.727c0.01,-0.158 0.018,-0.315 0.022,-0.473c0.007,-0.233 0.008,-0.465 0.003,-0.698c-0.004,-0.169 -0.013,-0.338 -0.024,-0.507c-0.014,-0.222 -0.031,-0.444 -0.057,-0.665c-0.021,-0.18 -0.049,-0.359 -0.077,-0.539c-0.033,-0.21 -0.067,-0.419 -0.111,-0.627c-0.04,-0.189 -0.089,-0.376 -0.137,-0.564c-0.051,-0.197 -0.1,-0.393 -0.16,-0.587c-0.061,-0.196 -0.133,-0.389 -0.203,-0.583c-0.066,-0.182 -0.129,-0.365 -0.204,-0.545c-0.084,-0.202 -0.181,-0.398 -0.276,-0.596c-0.08,-0.167 -0.154,-0.335 -0.242,-0.498c-0.111,-0.209 -0.238,-0.41 -0.361,-0.614c-0.089,-0.146 -0.171,-0.296 -0.267,-0.439c-0.15,-0.225 -0.317,-0.441 -0.483,-0.658c-0.087,-0.114 -0.165,-0.232 -0.256,-0.343c-0.265,-0.324 -0.548,-0.639 -0.85,-0.941l-8.159,-8.159c-0.302,-0.302 -0.617,-0.584 -0.941,-0.85c-0.111,-0.091 -0.228,-0.168 -0.342,-0.255c-0.218,-0.166 -0.434,-0.334 -0.66,-0.484c-0.143,-0.095 -0.291,-0.176 -0.437,-0.265c-0.204,-0.124 -0.406,-0.251 -0.615,-0.362c-0.163,-0.087 -0.331,-0.162 -0.497,-0.241c-0.198,-0.095 -0.396,-0.192 -0.598,-0.276c-0.18,-0.075 -0.364,-0.138 -0.547,-0.205c-0.193,-0.07 -0.384,-0.141 -0.58,-0.202c-0.196,-0.061 -0.394,-0.111 -0.592,-0.162c-0.186,-0.048 -0.372,-0.096 -0.559,-0.136c-0.21,-0.044 -0.42,-0.079 -0.631,-0.112c-0.178,-0.028 -0.356,-0.056 -0.535,-0.077c-0.222,-0.026 -0.444,-0.043 -0.667,-0.057c-0.169,-0.011 -0.337,-0.02 -0.506,-0.024c-0.234,-0.006 -0.467,-0.004 -0.7,0.003c-0.157,0.005 -0.313,0.012 -0.469,0.022c-0.244,0.016 -0.488,0.039 -0.731,0.069c-0.143,0.018 -0.285,0.039 -0.428,0.061c-0.254,0.04 -0.506,0.086 -0.758,0.141c-0.128,0.028 -0.255,0.061 -0.382,0.093c-0.26,0.066 -0.52,0.137 -0.779,0.22c-0.111,0.036 -0.221,0.077 -0.331,0.115c-0.269,0.095 -0.536,0.194 -0.8,0.307c-0.093,0.04 -0.184,0.085 -0.276,0.128c-0.275,0.126 -0.548,0.257 -0.815,0.403c-0.072,0.04 -0.142,0.084 -0.213,0.126c-0.281,0.161 -0.56,0.328 -0.831,0.513c-0.044,0.03 -0.086,0.064 -0.13,0.095c-0.293,0.205 -0.581,0.419 -0.859,0.651l0,0l0,0c-0.288,0.241 -0.572,0.49 -0.842,0.76c-11.313,10.765 -12.324,35.697 15.516,63.329c27.632,27.84 52.564,26.829 63.328,15.516c0.271,-0.271 0.52,-0.554 0.761,-0.843l0,0c0,0.001 0,0.001 0,0z"/>
   <path fill="#12767f" id="svg_2" stroke-linecap="round" d="m16.503,0.25c0.094,0 0.188,0.001 0.282,0.003c0.166,0.004 0.331,0.013 0.496,0.024c0.219,0.014 0.436,0.031 0.654,0.056c0.175,0.02 0.35,0.048 0.524,0.075c0.207,0.033 0.414,0.067 0.619,0.11c0.17,0.036 0.337,0.079 0.548,0.133l0.055,0.014c0.176,0.045 0.352,0.09 0.526,0.144c0.166,0.051 0.33,0.111 0.494,0.171l0.074,0.027l0.115,0.043c0.141,0.051 0.282,0.101 0.421,0.159c0.168,0.07 0.331,0.149 0.496,0.228l0.09,0.043l0.144,0.068c0.115,0.054 0.23,0.108 0.343,0.168c0.172,0.092 0.34,0.195 0.507,0.297l0.096,0.058l0.155,0.092c0.092,0.054 0.184,0.108 0.273,0.168c0.203,0.135 0.398,0.285 0.594,0.434l0.053,0.041l0.143,0.105c0.065,0.047 0.13,0.093 0.192,0.144c0.327,0.268 0.637,0.548 0.922,0.833l8.159,8.159c0.285,0.285 0.565,0.595 0.833,0.922c0.052,0.063 0.099,0.129 0.146,0.194l0.105,0.142l0.045,0.059c0.147,0.193 0.295,0.386 0.428,0.586c0.06,0.091 0.115,0.184 0.17,0.277l0.091,0.153l0.06,0.098c0.102,0.166 0.203,0.332 0.295,0.504c0.061,0.114 0.115,0.229 0.169,0.345l0.068,0.143l0.044,0.091c0.078,0.163 0.157,0.326 0.226,0.493c0.057,0.137 0.107,0.276 0.157,0.415l0.043,0.12l0.027,0.075c0.06,0.165 0.12,0.329 0.172,0.496c0.053,0.17 0.097,0.342 0.141,0.513l0.025,0.097c0.045,0.172 0.089,0.345 0.126,0.519c0.043,0.204 0.076,0.409 0.109,0.615c0.028,0.176 0.055,0.352 0.076,0.529c0.025,0.217 0.042,0.434 0.056,0.652c0.011,0.166 0.02,0.331 0.024,0.497c0.006,0.229 0.004,0.456 -0.003,0.685c-0.005,0.155 -0.012,0.309 -0.022,0.464c-0.016,0.238 -0.038,0.476 -0.067,0.713c-0.018,0.142 -0.039,0.283 -0.061,0.424c-0.039,0.248 -0.084,0.494 -0.137,0.739c-0.026,0.118 -0.056,0.235 -0.092,0.379c-0.064,0.256 -0.134,0.51 -0.215,0.761c-0.026,0.079 -0.054,0.158 -0.082,0.237l-0.033,0.092c-0.092,0.262 -0.189,0.523 -0.299,0.78c-0.024,0.057 -0.051,0.113 -0.078,0.169l-0.05,0.106c-0.123,0.268 -0.25,0.534 -0.393,0.795c-0.022,0.039 -0.045,0.078 -0.069,0.117l-0.057,0.097c-0.192,0.334 -0.346,0.584 -0.501,0.811l-0.045,0.062l-0.051,0.069c-0.232,0.331 -0.434,0.597 -0.636,0.839c-0.279,0.334 -0.516,0.597 -0.745,0.826l-5.52,5.52c-0.803,0.803 -0.803,2.111 0,2.914l23.861,23.86c0.389,0.389 0.907,0.604 1.457,0.604s1.068,-0.214 1.457,-0.604l5.52,-5.52c0.232,-0.232 0.486,-0.462 0.826,-0.746c0.242,-0.203 0.51,-0.405 0.842,-0.638l0.067,-0.049l0.06,-0.044c0.229,-0.156 0.48,-0.311 0.815,-0.504l0.093,-0.055c0.038,-0.023 0.077,-0.046 0.116,-0.068c0.262,-0.144 0.529,-0.272 0.799,-0.395l0.104,-0.049c0.055,-0.026 0.111,-0.052 0.167,-0.077c0.258,-0.111 0.52,-0.208 0.784,-0.301l0.094,-0.033c0.077,-0.027 0.153,-0.055 0.231,-0.08c0.253,-0.081 0.508,-0.151 0.794,-0.223c0.115,-0.029 0.23,-0.058 0.346,-0.084c0.247,-0.054 0.494,-0.099 0.743,-0.138c0.14,-0.022 0.279,-0.043 0.419,-0.06c0.239,-0.029 0.477,-0.052 0.717,-0.067c0.153,-0.01 0.306,-0.017 0.46,-0.022c0.135,-0.004 0.27,-0.006 0.406,-0.006c0.094,0 0.187,0.001 0.281,0.003c0.166,0.004 0.331,0.013 0.496,0.024c0.219,0.014 0.436,0.031 0.654,0.056c0.175,0.02 0.35,0.048 0.524,0.075c0.207,0.033 0.414,0.067 0.619,0.11c0.17,0.036 0.337,0.079 0.548,0.133l0.055,0.014c0.176,0.045 0.352,0.09 0.526,0.144c0.166,0.052 0.33,0.111 0.495,0.171l0.074,0.027l0.115,0.042c0.141,0.051 0.282,0.101 0.421,0.159c0.168,0.07 0.332,0.149 0.496,0.228l0.09,0.043l0.144,0.068c0.115,0.054 0.23,0.108 0.343,0.168c0.172,0.092 0.34,0.195 0.507,0.297l0.096,0.058l0.155,0.092c0.092,0.054 0.184,0.108 0.273,0.168c0.203,0.135 0.398,0.285 0.594,0.434l0.053,0.041l0.143,0.105c0.065,0.047 0.13,0.093 0.192,0.145c0.327,0.268 0.637,0.548 0.922,0.833l8.159,8.159c0.285,0.285 0.565,0.595 0.833,0.922c0.052,0.063 0.099,0.129 0.146,0.194l0.105,0.142l0.045,0.059c0.147,0.193 0.295,0.386 0.428,0.586c0.06,0.091 0.115,0.184 0.17,0.277l0.091,0.153l0.06,0.098c0.102,0.166 0.203,0.333 0.295,0.504c0.061,0.114 0.115,0.229 0.169,0.345l0.068,0.143l0.044,0.092c0.078,0.163 0.157,0.326 0.226,0.492c0.057,0.137 0.107,0.276 0.157,0.415l0.043,0.119l0.027,0.074c0.06,0.165 0.12,0.33 0.172,0.497c0.053,0.17 0.097,0.342 0.141,0.513l0.025,0.097c0.045,0.172 0.089,0.345 0.126,0.519c0.043,0.204 0.076,0.409 0.109,0.615c0.028,0.176 0.055,0.352 0.076,0.529c0.025,0.217 0.042,0.434 0.056,0.652c0.011,0.166 0.02,0.331 0.024,0.497c0.006,0.229 0.004,0.456 -0.003,0.685c-0.005,0.155 -0.012,0.309 -0.022,0.464c-0.016,0.238 -0.038,0.476 -0.067,0.713c-0.018,0.142 -0.039,0.283 -0.061,0.424c-0.039,0.248 -0.084,0.494 -0.137,0.739c-0.026,0.119 -0.056,0.236 -0.092,0.379c-0.064,0.256 -0.134,0.51 -0.215,0.761c-0.025,0.079 -0.054,0.158 -0.082,0.236l-0.033,0.093c-0.092,0.262 -0.189,0.523 -0.299,0.78c-0.025,0.057 -0.051,0.113 -0.078,0.169l-0.049,0.106c-0.123,0.268 -0.25,0.534 -0.393,0.795c-0.022,0.04 -0.045,0.078 -0.069,0.117l-0.057,0.096c-0.192,0.334 -0.346,0.584 -0.501,0.811l-0.045,0.062l-0.051,0.069c-0.232,0.331 -0.434,0.598 -0.636,0.839c-0.28,0.334 -0.516,0.597 -0.75,0.83c-4.52,4.75 -11.261,7.367 -18.981,7.367c-13.719,0 -29.341,-8.128 -43.991,-22.887c-14.902,-14.79 -23.029,-30.541 -22.883,-44.35c0.08,-7.563 2.695,-14.175 7.369,-18.622c0.232,-0.232 0.486,-0.461 0.826,-0.746c0.242,-0.203 0.51,-0.405 0.842,-0.638l0.067,-0.049l0.06,-0.044c0.229,-0.156 0.48,-0.311 0.815,-0.504l0.093,-0.055c0.038,-0.023 0.077,-0.046 0.116,-0.068c0.262,-0.143 0.529,-0.272 0.799,-0.395l0.104,-0.049c0.055,-0.026 0.111,-0.052 0.167,-0.077c0.258,-0.111 0.52,-0.208 0.784,-0.301l0.094,-0.033c0.077,-0.027 0.153,-0.055 0.231,-0.08c0.253,-0.081 0.508,-0.151 0.793,-0.223c0.116,-0.029 0.231,-0.059 0.347,-0.084c0.247,-0.054 0.494,-0.099 0.743,-0.138c0.14,-0.022 0.279,-0.043 0.419,-0.06c0.239,-0.029 0.477,-0.052 0.717,-0.067c0.153,-0.01 0.306,-0.017 0.46,-0.022c0.135,-0.004 0.27,-0.006 0.405,-0.006m0,-0.25c-0.138,0 -0.275,0.002 -0.413,0.006c-0.157,0.005 -0.313,0.012 -0.469,0.022c-0.244,0.016 -0.488,0.039 -0.731,0.069c-0.143,0.018 -0.285,0.039 -0.428,0.061c-0.254,0.04 -0.506,0.086 -0.758,0.141c-0.128,0.028 -0.255,0.061 -0.382,0.093c-0.262,0.067 -0.522,0.138 -0.781,0.221c-0.111,0.036 -0.221,0.077 -0.331,0.115c-0.269,0.095 -0.536,0.194 -0.8,0.307c-0.093,0.04 -0.184,0.085 -0.276,0.128c-0.275,0.126 -0.548,0.257 -0.815,0.403c-0.072,0.04 -0.142,0.084 -0.213,0.126c-0.281,0.161 -0.56,0.328 -0.831,0.513c-0.044,0.03 -0.086,0.064 -0.13,0.095c-0.293,0.205 -0.581,0.419 -0.859,0.651l0,0c-0.288,0.241 -0.572,0.49 -0.842,0.76c-11.313,10.765 -12.324,35.697 15.516,63.329c16.497,16.622 32.034,22.96 44.167,22.96c8.188,0 14.824,-2.886 19.162,-7.444c0.27,-0.27 0.52,-0.554 0.761,-0.842c0,0 0,0 0,0c0.232,-0.277 0.444,-0.564 0.649,-0.855c0.032,-0.045 0.067,-0.088 0.098,-0.134c0.184,-0.27 0.35,-0.547 0.511,-0.827c0.042,-0.073 0.088,-0.144 0.128,-0.218c0.146,-0.266 0.276,-0.537 0.401,-0.811c0.043,-0.094 0.089,-0.186 0.13,-0.28c0.113,-0.262 0.211,-0.528 0.305,-0.796c0.039,-0.112 0.081,-0.223 0.117,-0.336c0.082,-0.257 0.153,-0.516 0.219,-0.777c0.033,-0.129 0.065,-0.257 0.094,-0.386c0.055,-0.25 0.1,-0.501 0.14,-0.754c0.023,-0.144 0.044,-0.287 0.062,-0.432c0.03,-0.242 0.052,-0.484 0.068,-0.727c0.01,-0.158 0.018,-0.315 0.022,-0.473c0.007,-0.233 0.008,-0.465 0.003,-0.698c-0.004,-0.169 -0.013,-0.338 -0.024,-0.507c-0.014,-0.222 -0.031,-0.444 -0.057,-0.665c-0.021,-0.18 -0.049,-0.359 -0.077,-0.539c-0.033,-0.21 -0.067,-0.419 -0.111,-0.627c-0.04,-0.189 -0.089,-0.376 -0.137,-0.564c-0.051,-0.197 -0.1,-0.393 -0.16,-0.587c-0.061,-0.196 -0.133,-0.389 -0.203,-0.583c-0.066,-0.182 -0.129,-0.365 -0.204,-0.545c-0.084,-0.202 -0.181,-0.398 -0.276,-0.596c-0.08,-0.167 -0.154,-0.335 -0.242,-0.498c-0.111,-0.209 -0.238,-0.41 -0.361,-0.614c-0.089,-0.146 -0.171,-0.296 -0.267,-0.439c-0.15,-0.225 -0.317,-0.441 -0.483,-0.658c-0.087,-0.114 -0.165,-0.232 -0.256,-0.343c-0.265,-0.324 -0.548,-0.639 -0.85,-0.941l-8.159,-8.159c-0.302,-0.302 -0.617,-0.584 -0.941,-0.85c-0.111,-0.091 -0.228,-0.168 -0.341,-0.255c-0.218,-0.166 -0.434,-0.334 -0.66,-0.484c-0.143,-0.095 -0.291,-0.176 -0.437,-0.265c-0.204,-0.124 -0.406,-0.251 -0.615,-0.362c-0.163,-0.087 -0.331,-0.162 -0.497,-0.241c-0.198,-0.095 -0.396,-0.192 -0.598,-0.276c-0.18,-0.075 -0.364,-0.138 -0.547,-0.205c-0.193,-0.07 -0.384,-0.141 -0.58,-0.202c-0.196,-0.061 -0.394,-0.111 -0.592,-0.162c-0.186,-0.048 -0.372,-0.096 -0.559,-0.136c-0.21,-0.044 -0.42,-0.079 -0.631,-0.112c-0.178,-0.028 -0.356,-0.056 -0.535,-0.077c-0.222,-0.026 -0.444,-0.043 -0.667,-0.057c-0.169,-0.011 -0.337,-0.02 -0.506,-0.024c-0.096,-0.002 -0.192,-0.003 -0.287,-0.003c-0.138,0 -0.275,0.002 -0.413,0.006c-0.157,0.005 -0.313,0.012 -0.469,0.022c-0.244,0.016 -0.488,0.039 -0.731,0.069c-0.143,0.018 -0.285,0.039 -0.428,0.061c-0.254,0.04 -0.506,0.086 -0.758,0.141c-0.128,0.028 -0.255,0.061 -0.382,0.093c-0.262,0.066 -0.522,0.137 -0.781,0.22c-0.111,0.036 -0.221,0.077 -0.331,0.115c-0.269,0.095 -0.536,0.194 -0.8,0.307c-0.093,0.04 -0.184,0.085 -0.276,0.128c-0.275,0.126 -0.548,0.257 -0.815,0.403c-0.072,0.04 -0.142,0.084 -0.213,0.126c-0.282,0.162 -0.56,0.329 -0.831,0.514c-0.044,0.03 -0.086,0.065 -0.13,0.095c-0.293,0.205 -0.581,0.418 -0.859,0.651l0,0c-0.288,0.241 -0.572,0.49 -0.842,0.76l-5.52,5.52c-0.354,0.354 -0.817,0.53 -1.28,0.53c-0.463,0 -0.927,-0.177 -1.28,-0.53l-23.861,-23.86c-0.707,-0.707 -0.707,-1.854 0,-2.561l5.52,-5.52c0.27,-0.27 0.52,-0.554 0.76,-0.842c0,0 0,0 0,0c0.232,-0.277 0.444,-0.564 0.649,-0.855c0.032,-0.045 0.067,-0.088 0.098,-0.134c0.184,-0.27 0.35,-0.547 0.511,-0.827c0.042,-0.073 0.088,-0.144 0.128,-0.218c0.146,-0.266 0.276,-0.537 0.401,-0.811c0.043,-0.094 0.089,-0.186 0.13,-0.28c0.113,-0.262 0.211,-0.528 0.305,-0.796c0.039,-0.112 0.081,-0.223 0.117,-0.336c0.082,-0.257 0.153,-0.516 0.219,-0.777c0.033,-0.129 0.065,-0.257 0.094,-0.386c0.055,-0.25 0.1,-0.501 0.14,-0.754c0.023,-0.144 0.044,-0.287 0.062,-0.432c0.03,-0.242 0.052,-0.484 0.068,-0.727c0.01,-0.158 0.018,-0.315 0.022,-0.473c0.007,-0.233 0.008,-0.465 0.003,-0.698c-0.004,-0.169 -0.013,-0.338 -0.024,-0.507c-0.014,-0.222 -0.031,-0.444 -0.057,-0.665c-0.021,-0.18 -0.049,-0.359 -0.077,-0.539c-0.033,-0.21 -0.067,-0.419 -0.111,-0.627c-0.04,-0.189 -0.089,-0.376 -0.137,-0.564c-0.051,-0.197 -0.1,-0.393 -0.16,-0.587c-0.061,-0.196 -0.133,-0.389 -0.203,-0.583c-0.066,-0.182 -0.129,-0.365 -0.204,-0.545c-0.084,-0.202 -0.181,-0.398 -0.276,-0.596c-0.08,-0.167 -0.154,-0.335 -0.242,-0.498c-0.111,-0.209 -0.238,-0.41 -0.361,-0.614c-0.089,-0.146 -0.171,-0.296 -0.267,-0.439c-0.15,-0.225 -0.317,-0.441 -0.483,-0.658c-0.087,-0.114 -0.165,-0.232 -0.256,-0.343c-0.265,-0.324 -0.548,-0.639 -0.85,-0.941l-8.159,-8.159c-0.302,-0.302 -0.617,-0.584 -0.941,-0.85c-0.111,-0.091 -0.228,-0.168 -0.342,-0.255c-0.218,-0.166 -0.434,-0.334 -0.66,-0.484c-0.143,-0.095 -0.291,-0.176 -0.437,-0.265c-0.204,-0.124 -0.406,-0.251 -0.615,-0.362c-0.163,-0.087 -0.331,-0.162 -0.497,-0.241c-0.198,-0.095 -0.396,-0.192 -0.598,-0.276c-0.18,-0.075 -0.364,-0.138 -0.547,-0.205c-0.193,-0.07 -0.384,-0.141 -0.58,-0.202c-0.196,-0.061 -0.394,-0.111 -0.592,-0.162c-0.186,-0.048 -0.372,-0.096 -0.559,-0.136c-0.21,-0.044 -0.42,-0.079 -0.631,-0.112c-0.178,-0.028 -0.356,-0.056 -0.535,-0.077c-0.222,-0.026 -0.444,-0.043 -0.667,-0.057c-0.169,-0.011 -0.337,-0.02 -0.506,-0.024c-0.095,-0.004 -0.191,-0.005 -0.287,-0.005l0,0z"/>
  </g>
 </g>
</svg>