<?xml version="1.0" encoding="utf-8"?>
<!-- Generator: Adobe Illustrator 21.0.0, SVG Export Plug-In . SVG Version: 6.00 Build 0)  -->
<svg version="1.1" id="Layer_1" xmlns="http://www.w3.org/2000/svg" xmlns:xlink="http://www.w3.org/1999/xlink" x="0px" y="0px"
	 viewBox="0 0 512 512" style="enable-background:new 0 0 512 512;" xml:space="preserve">
<style type="text/css">
	.st0{fill:#76CCCD;}
	.st1{fill:#00B5BC;}
	.st2{opacity:0.37;fill:#279599;}
	.st3{fill:#279599;}
	.st4{fill:#FFFFFF;}
	.st5{opacity:0.25;fill:#9FD1EF;}
	.st6{opacity:0.25;fill:#D9EFFC;}
	.st7{fill:#B3E0F9;}
	.st8{opacity:0.25;}
	.st9{fill:#9FD1EF;}
	.st10{fill:#DC492F;}
	.st11{fill:#C6CEE1;}
	.st12{fill:#E15D50;}
	.st13{fill:#EEF1F9;}
	.st14{fill:#6D6E71;}
	.st15{fill:#F3E7D9;}
	.st16{fill:#231F20;}
</style>
<g>
	<path class="st0" d="M464.3,464.1H60.7v-370c0-2.1,1.7-3.7,3.7-3.7h396.2c2.1,0,3.7,1.7,3.7,3.7V464.1z"/>
	<g>
		<rect x="60.7" y="396.8" class="st1" width="403.6" height="59.8"/>
		<path class="st1" d="M464.3,224.2c-1.5,0.4-3.1,0.6-4.8,0.6c-10.9,0-19.7-8.8-19.7-19.7c0,10.9-8.8,19.7-19.7,19.7
			s-19.7-8.8-19.7-19.7c0,10.9-8.8,19.7-19.7,19.7c-10.9,0-19.7-8.8-19.7-19.7c0,10.9-8.8,19.7-19.7,19.7s-19.7-8.8-19.7-19.7
			c0,10.9-8.8,19.7-19.7,19.7s-19.7-8.8-19.7-19.7c0,10.9-8.8,19.7-19.7,19.7c-10.9,0-19.7-8.8-19.7-19.7c0,10.9-8.8,19.7-19.7,19.7
			s-19.7-8.8-19.7-19.7c0,10.9-8.8,19.7-19.7,19.7c-10.9,0-19.7-8.8-19.7-19.7c0,10.9-8.8,19.7-19.7,19.7
			c-10.9,0-19.7-8.8-19.7-19.7c0,10.9-8.8,19.7-19.7,19.7s-19.7-8.8-19.7-19.7c0,10.9-8.8,19.7-19.7,19.7c-1.6,0-3.2-0.3-4.8-0.6
			v15.1c1.6,0.2,3.1,0.5,4.8,0.5c7.3,0,14.1-2.3,19.7-6.2c5.6,3.9,12.4,6.2,19.7,6.2c7.3,0,14.1-2.3,19.7-6.2
			c5.6,3.9,12.4,6.2,19.7,6.2s14.1-2.3,19.7-6.2c5.6,3.9,12.4,6.2,19.7,6.2s14.1-2.3,19.7-6.2c5.6,3.9,12.4,6.2,19.7,6.2
			c7.3,0,14.1-2.3,19.7-6.2c5.6,3.9,12.4,6.2,19.7,6.2s14.1-2.3,19.7-6.2c5.6,3.9,12.4,6.2,19.7,6.2s14.1-2.3,19.7-6.2
			c5.6,3.9,12.4,6.2,19.7,6.2s14.1-2.3,19.7-6.2c5.6,3.9,12.4,6.2,19.7,6.2s14.1-2.3,19.7-6.2c5.6,3.9,12.4,6.2,19.7,6.2
			c7.3,0,14.1-2.3,19.7-6.2c5.6,3.9,12.4,6.2,19.7,6.2c1.6,0,3.2-0.3,4.8-0.5L464.3,224.2L464.3,224.2L464.3,224.2z"/>
	</g>
	<g>
		<rect x="98" y="269.7" class="st4" width="209.3" height="149.5"/>
		<rect x="337.2" y="269.7" class="st4" width="89.7" height="149.5"/>
	</g>
	<rect x="337.2" y="269.7" class="st5" width="89.7" height="22.4"/>
	<polygon class="st6" points="426.9,339.5 374.6,269.7 359.7,269.7 426.9,359.4 	"/>
	<polygon class="st5" points="344.7,269.7 337.2,269.7 337.2,299.6 426.9,419.2 426.9,379.4 	"/>
	<polygon class="st7" points="391.4,292.2 374.6,269.7 359.7,269.7 376.5,292.2 	"/>
	<polygon class="st6" points="284.9,419.2 270,419.2 157.8,269.7 172.8,269.7 	"/>
	<g class="st8">
		<polygon class="st9" points="255,419.2 225.1,419.2 113,269.7 142.9,269.7 		"/>
		<rect x="98" y="269.7" class="st9" width="209.3" height="22.4"/>
	</g>
	<polygon class="st7" points="189.6,292.2 172.8,269.7 157.8,269.7 174.7,292.2 	"/>
	<g>
		<path class="st10" d="M223.1,224.9L223.1,224.9c-10.9,0-19.7-8.8-19.7-19.7v-17.7h39.4v17.7C242.8,216.1,234,224.9,223.1,224.9z"
			/>
		<path class="st10" d="M301.9,224.9L301.9,224.9c-10.9,0-19.7-8.8-19.7-19.7v-17.7h39.4v17.7C321.6,216.1,312.8,224.9,301.9,224.9z
			"/>
		<path class="st10" d="M144.2,224.9L144.2,224.9c-10.9,0-19.7-8.8-19.7-19.7v-17.7H164v17.7C164,216.1,155.1,224.9,144.2,224.9z"/>
		<path class="st10" d="M65.4,224.9L65.4,224.9c-10.9,0-19.7-8.8-19.7-19.7v-17.7h39.4v17.7C85.1,216.1,76.3,224.9,65.4,224.9z"/>
		<path class="st10" d="M380.7,224.9L380.7,224.9c-10.9,0-19.7-8.8-19.7-19.7v-17.7h39.4v17.7C400.4,216.1,391.6,224.9,380.7,224.9z
			"/>
	</g>
	<g>
		<path class="st11" d="M183.7,224.9L183.7,224.9c-10.9,0-19.7-8.8-19.7-19.7v-17.7h39.4v17.7C203.4,216.1,194.5,224.9,183.7,224.9z
			"/>
		<path class="st11" d="M341.3,224.9L341.3,224.9c-10.9,0-19.7-8.8-19.7-19.7v-17.7H361v17.7C361,216.1,352.2,224.9,341.3,224.9z"/>
	</g>
	<path class="st10" d="M459.5,224.9L459.5,224.9c-10.9,0-19.7-8.8-19.7-19.7v-17.7h39.4v17.7C479.3,216.1,470.4,224.9,459.5,224.9z"
		/>
	<g>
		<path class="st11" d="M420.1,224.9L420.1,224.9c-10.9,0-19.7-8.8-19.7-19.7v-17.7h39.4v17.7C439.8,216.1,431,224.9,420.1,224.9z"
			/>
		<path class="st11" d="M104.8,224.9L104.8,224.9c-10.9,0-19.7-8.8-19.7-19.7v-17.7h39.4v17.7C124.5,216.1,115.7,224.9,104.8,224.9z
			"/>
		<path class="st11" d="M262.5,224.9L262.5,224.9c-10.9,0-19.7-8.8-19.7-19.7v-17.7h39.4v17.7C282.2,216.1,273.4,224.9,262.5,224.9z
			"/>
	</g>
	<g>
		<polygon class="st12" points="242.8,187.5 203.4,187.5 207.4,127.7 244.1,127.7 		"/>
		<polygon class="st12" points="321.6,187.5 282.2,187.5 280.8,127.7 317.5,127.7 		"/>
		<polygon class="st12" points="164,187.5 124.5,187.5 134.1,127.7 170.7,127.7 		"/>
		<polygon class="st12" points="85.1,187.5 45.7,187.5 60.7,127.7 97.4,127.7 		"/>
		<polygon class="st12" points="400.4,187.5 361,187.5 354.2,127.7 390.9,127.7 		"/>
	</g>
	<g>
		<polygon class="st13" points="203.4,187.5 164,187.5 170.7,127.7 207.4,127.7 		"/>
		<polygon class="st13" points="361,187.5 321.6,187.5 317.5,127.7 354.2,127.7 		"/>
	</g>
	<polygon class="st12" points="479.3,187.5 439.8,187.5 427.6,127.7 464.3,127.7 	"/>
	<g>
		<polygon class="st13" points="439.8,187.5 400.4,187.5 390.9,127.7 427.6,127.7 		"/>
		<polygon class="st13" points="124.5,187.5 85.1,187.5 97.4,127.7 134.1,127.7 		"/>
		<polygon class="st13" points="282.2,187.5 242.8,187.5 244.1,127.7 280.8,127.7 		"/>
	</g>
	<g>
		<path class="st14" d="M299.9,277.2v134.5H105.5V277.2H299.9 M307.3,262.3H98c-4.1,0-7.5,3.3-7.5,7.5v149.5c0,4.1,3.3,7.5,7.5,7.5
			h209.3c4.1,0,7.5-3.3,7.5-7.5V269.7C314.8,265.6,311.5,262.3,307.3,262.3L307.3,262.3z"/>
		<path class="st14" d="M426.9,262.3h-89.7c-4.1,0-7.5,3.3-7.5,7.5v186.9h104.6V269.7C434.4,265.6,431.1,262.3,426.9,262.3z
			 M419.5,411.8h-74.7V277.2h74.7V411.8z"/>
	</g>
	<path class="st14" d="M382.1,127.7H142.9c-8.3,0-14.9-6.7-14.9-14.9V67.9c0-8.3,6.7-14.9,14.9-14.9h239.2c8.3,0,14.9,6.7,14.9,14.9
		v44.8C397,121,390.3,127.7,382.1,127.7z"/>
	<path class="st0" d="M378.3,112.8H146.6c-2.1,0-3.7-1.7-3.7-3.7V71.7c0-2.1,1.7-3.7,3.7-3.7h231.7c2.1,0,3.7,1.7,3.7,3.7V109
		C382.1,111.1,380.4,112.8,378.3,112.8z"/>
	<path class="st1" d="M146.6,112.8h231.7c2.1,0,3.7-1.7,3.7-3.7V94.1c0,2.1-1.7,3.7-3.7,3.7H146.6c-2.1,0-3.7-1.7-3.7-3.7V109
		C142.9,111.1,144.6,112.8,146.6,112.8z"/>
	<path class="st14" d="M475.5,471.6H49.5c-2.1,0-3.7-1.7-3.7-3.7v-7.5c0-2.1,1.7-3.7,3.7-3.7h426.1c2.1,0,3.7,1.7,3.7,3.7v7.5
		C479.3,469.9,477.6,471.6,475.5,471.6z"/>
</g>
</svg>
